<?xml version="1.0" encoding="UTF-8" standalone="no"?>
<!DOCTYPE svg PUBLIC "-//W3C//DTD SVG 1.0//EN" "http://www.w3.org/TR/2001/PR-SVG-20010719/DTD/svg10.dtd">
<svg width="10cm" height="15cm" viewBox="252 -10 192 283" xmlns="http://www.w3.org/2000/svg" xmlns:xlink="http://www.w3.org/1999/xlink">
  <g>
    <ellipse style="fill: #ffffff" cx="351.136" cy="226.157" rx="46" ry="46"/>
    <ellipse style="fill: none; fill-opacity:0; stroke-width: 2; stroke: #000000" cx="351.136" cy="226.157" rx="46" ry="46"/>
  </g>
  <text font-size="16.9333" style="fill: #000000;text-anchor:middle;font-family:Bitstream Vera Sans;font-style:normal;font-weight:normal" x="351.136" y="226.156">
    <tspan x="351.136" y="226.156">z1</tspan>
  </text>
  <g>
    <ellipse style="fill: #ffffff" cx="351.136" cy="50.1567" rx="46" ry="46"/>
    <ellipse style="fill: none; fill-opacity:0; stroke-width: 2; stroke: #000000" cx="351.136" cy="50.1567" rx="46" ry="46"/>
  </g>
  <text font-size="16.9333" style="fill: #000000;text-anchor:middle;font-family:Bitstream Vera Sans;font-style:normal;font-weight:normal" x="351.136" y="56.0316">
    <tspan x="351.136" y="56.0316">z0</tspan>
  </text>
  <g>
    <path style="fill: none; fill-opacity:0; stroke-width: 2; stroke: #0000ff" d="M 414,9.5 A 112.305,112.305 0 0 0 395.736,15.5531"/>
    <polygon style="fill: #0000ff" points="388.96,18.7109 395.41,9.57825 395.57,15.1661 400.136,18.3908 "/>
    <polygon style="fill: none; fill-opacity:0; stroke-width: 2; stroke: #0000ff" points="388.96,18.7109 395.41,9.57825 395.57,15.1661 400.136,18.3908 "/>
  </g>
  <text font-size="16.9333" style="fill: #000000;text-anchor:start;font-family:monospace;font-style:normal;font-weight:normal" x="423.164" y="15.4749">
    <tspan x="423.164" y="15.4749">u0</tspan>
  </text>
  <g>
    <path style="fill: none; fill-opacity:0; stroke-width: 2; stroke-dasharray: 4; stroke: #ff0000" d="M 304.148,51.4656 A 39.4376,39.4376 0 0 0 328.548,121.905"/>
    <polygon style="fill: #ff0000" points="335.829,121.287 327.324,128.544 328.549,123.089 324.921,118.837 "/>
    <polygon style="fill: none; fill-opacity:0; stroke-width: 2; stroke: #ff0000" points="335.829,121.287 327.324,128.544 328.549,123.089 324.921,118.837 "/>
  </g>
  <g>
    <path style="fill: none; fill-opacity:0; stroke-width: 2; stroke: #000000" d="M 360.005,180.003 A 344.827,344.827 0 0 0 361.05,105.986"/>
    <polygon style="fill: #000000" points="360.277,98.529 366.453,107.848 361.187,105.974 356.527,109.062 "/>
    <polygon style="fill: none; fill-opacity:0; stroke-width: 2; stroke: #000000" points="360.277,98.529 366.453,107.848 361.187,105.974 356.527,109.062 "/>
  </g>
  <g>
    <path style="fill: none; fill-opacity:0; stroke-width: 2; stroke: #000000" d="M 342.267,96.3095 A 344.827,344.827 0 0 0 341.222,170.326"/>
    <polygon style="fill: #000000" points="341.995,177.784 335.819,168.464 341.085,170.339 345.745,167.251 "/>
    <polygon style="fill: none; fill-opacity:0; stroke-width: 2; stroke: #000000" points="341.995,177.784 335.819,168.464 341.085,170.339 345.745,167.251 "/>
  </g>
  <text font-size="12.7998" style="fill: #000000;text-anchor:start;font-family:sans-serif;font-style:normal;font-weight:normal" x="386" y="2.75">
    <tspan x="386" y="2.75">c(0,0)</tspan>
  </text>
  <text font-size="12.7998" style="fill: #000000;text-anchor:start;font-family:sans-serif;font-style:normal;font-weight:normal" x="367" y="141.75">
    <tspan x="367" y="141.75">a(0,1)</tspan>
  </text>
  <text font-size="12.7998" style="fill: #000000;text-anchor:start;font-family:sans-serif;font-style:normal;font-weight:normal" x="297" y="177.75">
    <tspan x="297" y="177.75">a(1,0)</tspan>
  </text>
  <text font-size="12.7998" style="fill: #000000;text-anchor:start;font-family:sans-serif;font-style:normal;font-weight:normal" x="252" y="124.75">
    <tspan x="252" y="124.75">d(0,1,0)</tspan>
  </text>
</svg>
