<?xml version="1.0" encoding="UTF-8" standalone="no"?>
<!DOCTYPE svg PUBLIC "-//W3C//DTD SVG 1.0//EN" "http://www.w3.org/TR/2001/PR-SVG-20010719/DTD/svg10.dtd">
<svg width="16cm" height="15cm" viewBox="299 -1 302 294" xmlns="http://www.w3.org/2000/svg" xmlns:xlink="http://www.w3.org/1999/xlink">
  <g>
    <g>
      <ellipse style="fill: #ffffff" cx="446" cy="46" rx="46" ry="46"/>
      <ellipse style="fill: none; fill-opacity:0; stroke-width: 2; stroke: #000000" cx="446" cy="46" rx="46" ry="46"/>
    </g>
    <text font-size="16.9333" style="fill: #000000;text-anchor:start;font-family:monospace;font-style:normal;font-weight:normal" x="434" y="52">
      <tspan x="434" y="52">z0</tspan>
    </text>
  </g>
  <g>
    <ellipse style="fill: #ffffff" cx="546" cy="246" rx="46" ry="46"/>
    <ellipse style="fill: none; fill-opacity:0; stroke-width: 2; stroke: #000000" cx="546" cy="246" rx="46" ry="46"/>
  </g>
  <text font-size="16.9333" style="fill: #000000;text-anchor:start;font-family:monospace;font-style:normal;font-weight:normal" x="534" y="252">
    <tspan x="534" y="252">z2</tspan>
  </text>
  <g>
    <ellipse style="fill: #ffffff" cx="346" cy="246" rx="46" ry="46"/>
    <ellipse style="fill: none; fill-opacity:0; stroke-width: 2; stroke: #000000" cx="346" cy="246" rx="46" ry="46"/>
  </g>
  <text font-size="16.9333" style="fill: #000000;text-anchor:start;font-family:monospace;font-style:normal;font-weight:normal" x="334" y="252">
    <tspan x="334" y="252">z1</tspan>
  </text>
  <g>
    <line style="fill: none; fill-opacity:0; stroke-width: 2; stroke: #000000" x1="424.992" y1="88.0166" x2="371.362" y2="195.275"/>
    <polygon style="fill: #000000" points="368.008,201.983 368.008,190.803 371.362,195.275 376.953,195.275 "/>
    <polygon style="fill: none; fill-opacity:0; stroke-width: 2; stroke: #000000" points="368.008,201.983 368.008,190.803 371.362,195.275 376.953,195.275 "/>
  </g>
  <g>
    <line style="fill: none; fill-opacity:0; stroke-width: 2; stroke: #000000" x1="393.003" y1="246" x2="489.261" y2="246"/>
    <polygon style="fill: #000000" points="496.761,246 486.761,251 489.261,246 486.761,241 "/>
    <polygon style="fill: none; fill-opacity:0; stroke-width: 2; stroke: #000000" points="496.761,246 486.761,251 489.261,246 486.761,241 "/>
  </g>
  <g>
    <path style="fill: none; fill-opacity:0; stroke-width: 2; stroke: #0000ff" d="M 580,120 A 156.45,156.45 0 0 0 501.726,55.8667"/>
    <polygon style="fill: #0000ff" points="494.656,53.4029 505.678,51.5258 501.832,55.5831 502.771,61.0939 "/>
    <polygon style="fill: none; fill-opacity:0; stroke-width: 2; stroke: #0000ff" points="494.656,53.4029 505.678,51.5258 501.832,55.5831 502.771,61.0939 "/>
  </g>
  <text font-size="16.9333" style="fill: #000000;text-anchor:start;font-family:monospace;font-style:normal;font-weight:normal" x="580" y="140">
    <tspan x="580" y="140">u0</tspan>
  </text>
</svg>
