<?xml version="1.0" encoding="ISO-8859-1" standalone="no"?>

<svg 
     version="1.1"
     baseProfile="full"
     xmlns="http://www.w3.org/2000/svg"
     xmlns:xlink="http://www.w3.org/1999/xlink"
     xmlns:ev="http://www.w3.org/2001/xml-events"
     x="0px"
     y="0px"
     width="239px"
     height="167px"
     viewBox="0 0 239 167"
     >
<title>

</title>
<g stroke-linejoin="miter" stroke-dashoffset="0.0000" stroke-dasharray="none" stroke-width="1.0000" stroke-miterlimit="10.000" stroke-linecap="square">
<g transform="matrix(.42289, 0.0000, 0.0000, .42289, -139.13, -80.772)">
<clipPath id="clip1">
  <path d="M 329.00 191.00 L 329.00 588.00 L 895.00 588.00 L 895.00 191.00 z"/>
</clipPath>
<g clip-path="url(#clip1)">
<g stroke-linecap="butt" fill="none" stroke-opacity="1.0000" stroke="#000000">
  <path d="M 111.93 2.0000 L 111.93 711.00"/>
</g> <!-- drawing style -->
</g> <!-- clip1 -->
</g> <!-- transform -->
<g transform="matrix(.42289, 0.0000, 0.0000, .42289, -139.13, -80.772)">
<clipPath id="clip2">
  <path d="M 329.00 191.00 L 329.00 588.00 L 895.00 588.00 L 895.00 191.00 z"/>
</clipPath>
<g clip-path="url(#clip2)">
<g stroke-linecap="butt" fill="none" stroke-opacity="1.0000" stroke="#000000">
  <path d="M 112.43 1.0000 L 108.93 4.0000"/>
</g> <!-- drawing style -->
</g> <!-- clip2 -->
</g> <!-- transform -->
<g transform="matrix(.42289, 0.0000, 0.0000, .42289, -139.13, -80.772)">
<clipPath id="clip3">
  <path d="M 329.00 191.00 L 329.00 588.00 L 895.00 588.00 L 895.00 191.00 z"/>
</clipPath>
<g clip-path="url(#clip3)">
<g stroke-linecap="butt" fill="none" stroke-opacity="1.0000" stroke="#000000">
  <path d="M 111.43 1.0000 L 114.93 4.0000"/>
</g> <!-- drawing style -->
</g> <!-- clip3 -->
</g> <!-- transform -->
<g transform="matrix(.42289, 0.0000, 0.0000, .42289, -139.13, -80.772)">
<clipPath id="clip4">
  <path d="M 329.00 191.00 L 329.00 588.00 L 895.00 588.00 L 895.00 191.00 z"/>
</clipPath>
<g clip-path="url(#clip4)">
<g stroke-linecap="butt" fill="none" stroke-opacity="1.0000" stroke="#000000">
  <path d="M 107.93 747.75 L 111.93 747.75"/>
</g> <!-- drawing style -->
</g> <!-- clip4 -->
</g> <!-- transform -->
<g transform="matrix(.42289, 0.0000, 0.0000, .42289, -139.13, -80.772)">
<clipPath id="clip5">
  <path d="M 329.00 191.00 L 329.00 588.00 L 895.00 588.00 L 895.00 191.00 z"/>
</clipPath>
<g clip-path="url(#clip5)">
<g fill-opacity="1.0000" fill-rule="nonzero" stroke="none" fill="#000000">
  <path d="M 93.172 677.36 Q 92.422 677.36 92.039 678.11 Q 91.656 678.86 91.656 680.36 Q 91.656 681.86 92.039 682.61 Q 92.422 683.36 93.172 683.36 Q 93.953 683.36 94.336 682.61 Q 94.719 681.86 94.719 680.36 Q 94.719 678.86 94.336 678.11 Q 93.953 677.36 93.172 677.36 z M 93.172 676.58 Q 94.406 676.58 95.055 677.55 Q 95.703 678.52 95.703 680.36 Q 95.703 682.20 95.055 683.17 Q 94.406 684.14 93.172 684.14 Q 91.953 684.14 91.305 683.17 Q 90.656 682.20 90.656 680.36 Q 90.656 678.52 91.305 677.55 Q 91.953 676.58 93.172 676.58 z M 97.425 682.77 L 98.456 682.77 L 98.456 684.00 L 97.425 684.00 L 97.425 682.77 z M 102.84 679.97 Q 102.18 679.97 101.79 680.42 Q 101.40 680.88 101.40 681.66 Q 101.40 682.45 101.79 682.91 Q 102.18 683.36 102.84 683.36 Q 103.51 683.36 103.89 682.91 Q 104.28 682.45 104.28 681.66 Q 104.28 680.88 103.89 680.42 Q 103.51 679.97 102.84 679.97 z M 104.81 676.88 L 104.81 677.77 Q 104.43 677.59 104.05 677.50 Q 103.67 677.41 103.31 677.41 Q 102.32 677.41 101.81 678.06 Q 101.29 678.72 101.23 680.06 Q 101.51 679.64 101.95 679.41 Q 102.38 679.19 102.90 679.19 Q 103.99 679.19 104.63 679.85 Q 105.28 680.52 105.28 681.66 Q 105.28 682.78 104.61 683.46 Q 103.95 684.14 102.84 684.14 Q 101.57 684.14 100.91 683.17 Q 100.24 682.20 100.24 680.36 Q 100.24 678.64 101.06 677.61 Q 101.88 676.58 103.26 676.58 Q 103.63 676.58 104.01 676.65 Q 104.38 676.72 104.81 676.88 z"/>
</g> <!-- drawing style -->
</g> <!-- clip5 -->
</g> <!-- transform -->
<g transform="matrix(.42289, 0.0000, 0.0000, .42289, -139.13, -80.772)">
<clipPath id="clip6">
  <path d="M 329.00 191.00 L 329.00 588.00 L 895.00 588.00 L 895.00 191.00 z"/>
</clipPath>
<g clip-path="url(#clip6)">
<g stroke-linecap="butt" fill="none" stroke-opacity="1.0000" stroke="#000000">
  <path d="M 107.93 680.72 L 111.93 680.72"/>
</g> <!-- drawing style -->
</g> <!-- clip6 -->
</g> <!-- transform -->
<g transform="matrix(.42289, 0.0000, 0.0000, .42289, -139.13, -80.772)">
<clipPath id="clip7">
  <path d="M 329.00 191.00 L 329.00 588.00 L 895.00 588.00 L 895.00 191.00 z"/>
</clipPath>
<g clip-path="url(#clip7)">
<g fill-opacity="1.0000" fill-rule="nonzero" stroke="none" fill="#000000">
  <path d="M 93.172 610.36 Q 92.422 610.36 92.039 611.11 Q 91.656 611.86 91.656 613.36 Q 91.656 614.86 92.039 615.61 Q 92.422 616.36 93.172 616.36 Q 93.953 616.36 94.336 615.61 Q 94.719 614.86 94.719 613.36 Q 94.719 611.86 94.336 611.11 Q 93.953 610.36 93.172 610.36 z M 93.172 609.58 Q 94.406 609.58 95.055 610.55 Q 95.703 611.52 95.703 613.36 Q 95.703 615.20 95.055 616.17 Q 94.406 617.14 93.172 617.14 Q 91.953 617.14 91.305 616.17 Q 90.656 615.20 90.656 613.36 Q 90.656 611.52 91.305 610.55 Q 91.953 609.58 93.172 609.58 z M 97.425 615.77 L 98.456 615.77 L 98.456 617.00 L 97.425 617.00 L 97.425 615.77 z M 100.37 609.70 L 105.06 609.70 L 105.06 610.12 L 102.40 617.00 L 101.37 617.00 L 103.87 610.55 L 100.37 610.55 L 100.37 609.70 z"/>
</g> <!-- drawing style -->
</g> <!-- clip7 -->
</g> <!-- transform -->
<g transform="matrix(.42289, 0.0000, 0.0000, .42289, -139.13, -80.772)">
<clipPath id="clip8">
  <path d="M 329.00 191.00 L 329.00 588.00 L 895.00 588.00 L 895.00 191.00 z"/>
</clipPath>
<g clip-path="url(#clip8)">
<g stroke-linecap="butt" fill="none" stroke-opacity="1.0000" stroke="#000000">
  <path d="M 107.93 613.69 L 111.93 613.69"/>
</g> <!-- drawing style -->
</g> <!-- clip8 -->
</g> <!-- transform -->
<g transform="matrix(.42289, 0.0000, 0.0000, .42289, -139.13, -80.772)">
<clipPath id="clip9">
  <path d="M 329.00 191.00 L 329.00 588.00 L 895.00 588.00 L 895.00 191.00 z"/>
</clipPath>
<g clip-path="url(#clip9)">
<g fill-opacity="1.0000" fill-rule="nonzero" stroke="none" fill="#000000">
  <path d="M 93.172 543.36 Q 92.422 543.36 92.039 544.11 Q 91.656 544.86 91.656 546.36 Q 91.656 547.86 92.039 548.61 Q 92.422 549.36 93.172 549.36 Q 93.953 549.36 94.336 548.61 Q 94.719 547.86 94.719 546.36 Q 94.719 544.86 94.336 544.11 Q 93.953 543.36 93.172 543.36 z M 93.172 542.58 Q 94.406 542.58 95.055 543.55 Q 95.703 544.52 95.703 546.36 Q 95.703 548.20 95.055 549.17 Q 94.406 550.14 93.172 550.14 Q 91.953 550.14 91.305 549.17 Q 90.656 548.20 90.656 546.36 Q 90.656 544.52 91.305 543.55 Q 91.953 542.58 93.172 542.58 z M 97.425 548.77 L 98.456 548.77 L 98.456 550.00 L 97.425 550.00 L 97.425 548.77 z M 102.71 546.53 Q 102.01 546.53 101.61 546.91 Q 101.21 547.30 101.21 547.95 Q 101.21 548.61 101.61 548.98 Q 102.01 549.36 102.71 549.36 Q 103.42 549.36 103.82 548.98 Q 104.23 548.61 104.23 547.95 Q 104.23 547.30 103.83 546.91 Q 103.43 546.53 102.71 546.53 z M 101.73 546.12 Q 101.10 545.97 100.74 545.53 Q 100.38 545.09 100.38 544.47 Q 100.38 543.59 101.01 543.09 Q 101.63 542.58 102.71 542.58 Q 103.81 542.58 104.43 543.09 Q 105.06 543.59 105.06 544.47 Q 105.06 545.09 104.70 545.53 Q 104.34 545.97 103.71 546.12 Q 104.43 546.28 104.82 546.77 Q 105.21 547.25 105.21 547.95 Q 105.21 549.02 104.57 549.58 Q 103.93 550.14 102.71 550.14 Q 101.51 550.14 100.86 549.58 Q 100.21 549.02 100.21 547.95 Q 100.21 547.25 100.62 546.77 Q 101.03 546.28 101.73 546.12 z M 101.37 544.56 Q 101.37 545.12 101.73 545.45 Q 102.09 545.77 102.71 545.77 Q 103.35 545.77 103.71 545.45 Q 104.07 545.12 104.07 544.56 Q 104.07 544.00 103.71 543.68 Q 103.35 543.36 102.71 543.36 Q 102.09 543.36 101.73 543.68 Q 101.37 544.00 101.37 544.56 z"/>
</g> <!-- drawing style -->
</g> <!-- clip9 -->
</g> <!-- transform -->
<g transform="matrix(.42289, 0.0000, 0.0000, .42289, -139.13, -80.772)">
<clipPath id="clip10">
  <path d="M 329.00 191.00 L 329.00 588.00 L 895.00 588.00 L 895.00 191.00 z"/>
</clipPath>
<g clip-path="url(#clip10)">
<g stroke-linecap="butt" fill="none" stroke-opacity="1.0000" stroke="#000000">
  <path d="M 107.93 546.66 L 111.93 546.66"/>
</g> <!-- drawing style -->
</g> <!-- clip10 -->
</g> <!-- transform -->
<g transform="matrix(.42289, 0.0000, 0.0000, .42289, -139.13, -80.772)">
<clipPath id="clip11">
  <path d="M 329.00 191.00 L 329.00 588.00 L 895.00 588.00 L 895.00 191.00 z"/>
</clipPath>
<g clip-path="url(#clip11)">
<g fill-opacity="1.0000" fill-rule="nonzero" stroke="none" fill="#000000">
  <path d="M 93.172 476.36 Q 92.422 476.36 92.039 477.11 Q 91.656 477.86 91.656 479.36 Q 91.656 480.86 92.039 481.61 Q 92.422 482.36 93.172 482.36 Q 93.953 482.36 94.336 481.61 Q 94.719 480.86 94.719 479.36 Q 94.719 477.86 94.336 477.11 Q 93.953 476.36 93.172 476.36 z M 93.172 475.58 Q 94.406 475.58 95.055 476.55 Q 95.703 477.52 95.703 479.36 Q 95.703 481.20 95.055 482.17 Q 94.406 483.14 93.172 483.14 Q 91.953 483.14 91.305 482.17 Q 90.656 481.20 90.656 479.36 Q 90.656 477.52 91.305 476.55 Q 91.953 475.58 93.172 475.58 z M 97.425 481.77 L 98.456 481.77 L 98.456 483.00 L 97.425 483.00 L 97.425 481.77 z M 100.63 482.84 L 100.63 481.95 Q 101.01 482.12 101.39 482.22 Q 101.78 482.31 102.13 482.31 Q 103.12 482.31 103.63 481.66 Q 104.15 481.00 104.21 479.66 Q 103.93 480.08 103.50 480.30 Q 103.07 480.53 102.54 480.53 Q 101.45 480.53 100.81 479.87 Q 100.17 479.20 100.17 478.06 Q 100.17 476.94 100.83 476.26 Q 101.49 475.58 102.60 475.58 Q 103.87 475.58 104.53 476.55 Q 105.20 477.52 105.20 479.36 Q 105.20 481.08 104.38 482.11 Q 103.57 483.14 102.18 483.14 Q 101.81 483.14 101.43 483.07 Q 101.06 483.00 100.63 482.84 z M 102.60 479.75 Q 103.26 479.75 103.65 479.30 Q 104.04 478.84 104.04 478.06 Q 104.04 477.27 103.65 476.81 Q 103.26 476.36 102.60 476.36 Q 101.93 476.36 101.55 476.81 Q 101.17 477.27 101.17 478.06 Q 101.17 478.84 101.55 479.30 Q 101.93 479.75 102.60 479.75 z"/>
</g> <!-- drawing style -->
</g> <!-- clip11 -->
</g> <!-- transform -->
<g transform="matrix(.42289, 0.0000, 0.0000, .42289, -139.13, -80.772)">
<clipPath id="clip12">
  <path d="M 329.00 191.00 L 329.00 588.00 L 895.00 588.00 L 895.00 191.00 z"/>
</clipPath>
<g clip-path="url(#clip12)">
<g stroke-linecap="butt" fill="none" stroke-opacity="1.0000" stroke="#000000">
  <path d="M 107.93 479.63 L 111.93 479.63"/>
</g> <!-- drawing style -->
</g> <!-- clip12 -->
</g> <!-- transform -->
<g transform="matrix(.42289, 0.0000, 0.0000, .42289, -139.13, -80.772)">
<clipPath id="clip13">
  <path d="M 329.00 191.00 L 329.00 588.00 L 895.00 588.00 L 895.00 191.00 z"/>
</clipPath>
<g clip-path="url(#clip13)">
<g fill-opacity="1.0000" fill-rule="nonzero" stroke="none" fill="#000000">
  <path d="M 101.23 415.17 L 102.86 415.17 L 102.86 409.61 L 101.09 409.95 L 101.09 409.06 L 102.84 408.70 L 103.83 408.70 L 103.83 415.17 L 105.44 415.17 L 105.44 416.00 L 101.23 416.00 L 101.23 415.17 z"/>
</g> <!-- drawing style -->
</g> <!-- clip13 -->
</g> <!-- transform -->
<g transform="matrix(.42289, 0.0000, 0.0000, .42289, -139.13, -80.772)">
<clipPath id="clip14">
  <path d="M 329.00 191.00 L 329.00 588.00 L 895.00 588.00 L 895.00 191.00 z"/>
</clipPath>
<g clip-path="url(#clip14)">
<g stroke-linecap="butt" fill="none" stroke-opacity="1.0000" stroke="#000000">
  <path d="M 107.93 412.60 L 111.93 412.60"/>
</g> <!-- drawing style -->
</g> <!-- clip14 -->
</g> <!-- transform -->
<g transform="matrix(.42289, 0.0000, 0.0000, .42289, -139.13, -80.772)">
<clipPath id="clip15">
  <path d="M 329.00 191.00 L 329.00 588.00 L 895.00 588.00 L 895.00 191.00 z"/>
</clipPath>
<g clip-path="url(#clip15)">
<g fill-opacity="1.0000" fill-rule="nonzero" stroke="none" fill="#000000">
  <path d="M 91.234 348.17 L 92.859 348.17 L 92.859 342.61 L 91.094 342.95 L 91.094 342.06 L 92.844 341.70 L 93.828 341.70 L 93.828 348.17 L 95.438 348.17 L 95.438 349.00 L 91.234 349.00 L 91.234 348.17 z M 97.425 347.77 L 98.456 347.77 L 98.456 349.00 L 97.425 349.00 L 97.425 347.77 z M 100.78 348.17 L 102.40 348.17 L 102.40 342.61 L 100.63 342.95 L 100.63 342.06 L 102.38 341.70 L 103.37 341.70 L 103.37 348.17 L 104.98 348.17 L 104.98 349.00 L 100.78 349.00 L 100.78 348.17 z"/>
</g> <!-- drawing style -->
</g> <!-- clip15 -->
</g> <!-- transform -->
<g transform="matrix(.42289, 0.0000, 0.0000, .42289, -139.13, -80.772)">
<clipPath id="clip16">
  <path d="M 329.00 191.00 L 329.00 588.00 L 895.00 588.00 L 895.00 191.00 z"/>
</clipPath>
<g clip-path="url(#clip16)">
<g stroke-linecap="butt" fill="none" stroke-opacity="1.0000" stroke="#000000">
  <path d="M 107.93 345.57 L 111.93 345.57"/>
</g> <!-- drawing style -->
</g> <!-- clip16 -->
</g> <!-- transform -->
<g transform="matrix(.42289, 0.0000, 0.0000, .42289, -139.13, -80.772)">
<clipPath id="clip17">
  <path d="M 329.00 191.00 L 329.00 588.00 L 895.00 588.00 L 895.00 191.00 z"/>
</clipPath>
<g clip-path="url(#clip17)">
<g fill-opacity="1.0000" fill-rule="nonzero" stroke="none" fill="#000000">
  <path d="M 91.234 281.17 L 92.859 281.17 L 92.859 275.61 L 91.094 275.95 L 91.094 275.06 L 92.844 274.70 L 93.828 274.70 L 93.828 281.17 L 95.438 281.17 L 95.438 282.00 L 91.234 282.00 L 91.234 281.17 z M 97.425 280.77 L 98.456 280.77 L 98.456 282.00 L 97.425 282.00 L 97.425 280.77 z M 101.46 281.17 L 104.90 281.17 L 104.90 282.00 L 100.28 282.00 L 100.28 281.17 Q 100.84 280.59 101.81 279.61 Q 102.78 278.62 103.03 278.34 Q 103.49 277.81 103.68 277.45 Q 103.87 277.08 103.87 276.72 Q 103.87 276.14 103.46 275.77 Q 103.06 275.41 102.40 275.41 Q 101.93 275.41 101.42 275.57 Q 100.92 275.73 100.32 276.06 L 100.32 275.06 Q 100.92 274.83 101.43 274.70 Q 101.95 274.58 102.38 274.58 Q 103.51 274.58 104.19 275.14 Q 104.87 275.70 104.87 276.66 Q 104.87 277.11 104.70 277.51 Q 104.53 277.91 104.09 278.45 Q 103.96 278.59 103.31 279.27 Q 102.65 279.95 101.46 281.17 z"/>
</g> <!-- drawing style -->
</g> <!-- clip17 -->
</g> <!-- transform -->
<g transform="matrix(.42289, 0.0000, 0.0000, .42289, -139.13, -80.772)">
<clipPath id="clip18">
  <path d="M 329.00 191.00 L 329.00 588.00 L 895.00 588.00 L 895.00 191.00 z"/>
</clipPath>
<g clip-path="url(#clip18)">
<g stroke-linecap="butt" fill="none" stroke-opacity="1.0000" stroke="#000000">
  <path d="M 107.93 278.54 L 111.93 278.54"/>
</g> <!-- drawing style -->
</g> <!-- clip18 -->
</g> <!-- transform -->
<g transform="matrix(.42289, 0.0000, 0.0000, .42289, -139.13, -80.772)">
<clipPath id="clip19">
  <path d="M 329.00 191.00 L 329.00 588.00 L 895.00 588.00 L 895.00 191.00 z"/>
</clipPath>
<g clip-path="url(#clip19)">
<g fill-opacity="1.0000" fill-rule="nonzero" stroke="none" fill="#000000">
  <path d="M 91.234 214.17 L 92.859 214.17 L 92.859 208.61 L 91.094 208.95 L 91.094 208.06 L 92.844 207.70 L 93.828 207.70 L 93.828 214.17 L 95.438 214.17 L 95.438 215.00 L 91.234 215.00 L 91.234 214.17 z M 97.425 213.77 L 98.456 213.77 L 98.456 215.00 L 97.425 215.00 L 97.425 213.77 z M 103.60 211.06 Q 104.31 211.22 104.71 211.70 Q 105.10 212.17 105.10 212.88 Q 105.10 213.95 104.36 214.55 Q 103.62 215.14 102.24 215.14 Q 101.79 215.14 101.31 215.05 Q 100.82 214.95 100.31 214.78 L 100.31 213.83 Q 100.71 214.06 101.21 214.19 Q 101.70 214.31 102.23 214.31 Q 103.15 214.31 103.63 213.95 Q 104.12 213.58 104.12 212.88 Q 104.12 212.23 103.67 211.88 Q 103.21 211.52 102.42 211.52 L 101.56 211.52 L 101.56 210.70 L 102.45 210.70 Q 103.18 210.70 103.56 210.41 Q 103.95 210.11 103.95 209.56 Q 103.95 209.02 103.55 208.71 Q 103.15 208.41 102.42 208.41 Q 102.01 208.41 101.54 208.49 Q 101.07 208.58 100.53 208.77 L 100.53 207.89 Q 101.09 207.73 101.58 207.66 Q 102.07 207.58 102.49 207.58 Q 103.62 207.58 104.28 208.09 Q 104.93 208.59 104.93 209.47 Q 104.93 210.08 104.59 210.49 Q 104.24 210.91 103.60 211.06 z"/>
</g> <!-- drawing style -->
</g> <!-- clip19 -->
</g> <!-- transform -->
<g transform="matrix(.42289, 0.0000, 0.0000, .42289, -139.13, -80.772)">
<clipPath id="clip20">
  <path d="M 329.00 191.00 L 329.00 588.00 L 895.00 588.00 L 895.00 191.00 z"/>
</clipPath>
<g clip-path="url(#clip20)">
<g stroke-linecap="butt" fill="none" stroke-opacity="1.0000" stroke="#000000">
  <path d="M 107.93 211.51 L 111.93 211.51"/>
</g> <!-- drawing style -->
</g> <!-- clip20 -->
</g> <!-- transform -->
<g transform="matrix(.42289, 0.0000, 0.0000, .42289, -139.13, -80.772)">
<clipPath id="clip21">
  <path d="M 329.00 191.00 L 329.00 588.00 L 895.00 588.00 L 895.00 191.00 z"/>
</clipPath>
<g clip-path="url(#clip21)">
<g fill-opacity="1.0000" fill-rule="nonzero" stroke="none" fill="#000000">
  <path d="M 91.234 147.17 L 92.859 147.17 L 92.859 141.61 L 91.094 141.95 L 91.094 141.06 L 92.844 140.70 L 93.828 140.70 L 93.828 147.17 L 95.438 147.17 L 95.438 148.00 L 91.234 148.00 L 91.234 147.17 z M 97.425 146.77 L 98.456 146.77 L 98.456 148.00 L 97.425 148.00 L 97.425 146.77 z M 103.32 141.56 L 100.84 145.45 L 103.32 145.45 L 103.32 141.56 z M 103.06 140.70 L 104.31 140.70 L 104.31 145.45 L 105.34 145.45 L 105.34 146.28 L 104.31 146.28 L 104.31 148.00 L 103.32 148.00 L 103.32 146.28 L 100.03 146.28 L 100.03 145.33 L 103.06 140.70 z"/>
</g> <!-- drawing style -->
</g> <!-- clip21 -->
</g> <!-- transform -->
<g transform="matrix(.42289, 0.0000, 0.0000, .42289, -139.13, -80.772)">
<clipPath id="clip22">
  <path d="M 329.00 191.00 L 329.00 588.00 L 895.00 588.00 L 895.00 191.00 z"/>
</clipPath>
<g clip-path="url(#clip22)">
<g stroke-linecap="butt" fill="none" stroke-opacity="1.0000" stroke="#000000">
  <path d="M 107.93 144.48 L 111.93 144.48"/>
</g> <!-- drawing style -->
</g> <!-- clip22 -->
</g> <!-- transform -->
<g transform="matrix(.42289, 0.0000, 0.0000, .42289, -139.13, -80.772)">
<clipPath id="clip23">
  <path d="M 329.00 191.00 L 329.00 588.00 L 895.00 588.00 L 895.00 191.00 z"/>
</clipPath>
<g clip-path="url(#clip23)">
<g fill-opacity="1.0000" fill-rule="nonzero" stroke="none" fill="#000000">
  <path d="M 91.234 80.172 L 92.859 80.172 L 92.859 74.609 L 91.094 74.953 L 91.094 74.062 L 92.844 73.703 L 93.828 73.703 L 93.828 80.172 L 95.438 80.172 L 95.438 81.000 L 91.234 81.000 L 91.234 80.172 z M 97.425 79.766 L 98.456 79.766 L 98.456 81.000 L 97.425 81.000 L 97.425 79.766 z M 100.62 73.703 L 104.49 73.703 L 104.49 74.547 L 101.53 74.547 L 101.53 76.328 Q 101.74 76.250 101.96 76.219 Q 102.17 76.188 102.38 76.188 Q 103.60 76.188 104.31 76.852 Q 105.03 77.516 105.03 78.656 Q 105.03 79.844 104.30 80.492 Q 103.57 81.141 102.23 81.141 Q 101.78 81.141 101.30 81.062 Q 100.82 80.984 100.31 80.828 L 100.31 79.844 Q 100.76 80.078 101.23 80.195 Q 101.70 80.312 102.21 80.312 Q 103.06 80.312 103.55 79.867 Q 104.04 79.422 104.04 78.656 Q 104.04 77.906 103.55 77.461 Q 103.06 77.016 102.21 77.016 Q 101.82 77.016 101.42 77.102 Q 101.03 77.188 100.62 77.375 L 100.62 73.703 z"/>
</g> <!-- drawing style -->
</g> <!-- clip23 -->
</g> <!-- transform -->
<g transform="matrix(.42289, 0.0000, 0.0000, .42289, -139.13, -80.772)">
<clipPath id="clip24">
  <path d="M 329.00 191.00 L 329.00 588.00 L 895.00 588.00 L 895.00 191.00 z"/>
</clipPath>
<g clip-path="url(#clip24)">
<g stroke-linecap="butt" fill="none" stroke-opacity="1.0000" stroke="#000000">
  <path d="M 107.93 77.449 L 111.93 77.449"/>
</g> <!-- drawing style -->
</g> <!-- clip24 -->
</g> <!-- transform -->
<g transform="matrix(.42289, 0.0000, 0.0000, .42289, -139.13, -80.772)">
<clipPath id="clip25">
  <path d="M 329.00 191.00 L 329.00 588.00 L 895.00 588.00 L 895.00 191.00 z"/>
</clipPath>
<g clip-path="url(#clip25)">
<g fill-opacity="1.0000" fill-rule="nonzero" stroke="none" fill="#000000">
  <path d="M 91.234 13.172 L 92.859 13.172 L 92.859 7.6094 L 91.094 7.9531 L 91.094 7.0625 L 92.844 6.7031 L 93.828 6.7031 L 93.828 13.172 L 95.438 13.172 L 95.438 14.000 L 91.234 14.000 L 91.234 13.172 z M 97.425 12.766 L 98.456 12.766 L 98.456 14.000 L 97.425 14.000 L 97.425 12.766 z M 102.84 9.9688 Q 102.18 9.9688 101.79 10.422 Q 101.40 10.875 101.40 11.656 Q 101.40 12.453 101.79 12.906 Q 102.18 13.359 102.84 13.359 Q 103.51 13.359 103.89 12.906 Q 104.28 12.453 104.28 11.656 Q 104.28 10.875 103.89 10.422 Q 103.51 9.9688 102.84 9.9688 z M 104.81 6.8750 L 104.81 7.7656 Q 104.43 7.5938 104.05 7.5000 Q 103.67 7.4062 103.31 7.4062 Q 102.32 7.4062 101.81 8.0625 Q 101.29 8.7188 101.23 10.062 Q 101.51 9.6406 101.95 9.4141 Q 102.38 9.1875 102.90 9.1875 Q 103.99 9.1875 104.63 9.8516 Q 105.28 10.516 105.28 11.656 Q 105.28 12.781 104.61 13.461 Q 103.95 14.141 102.84 14.141 Q 101.57 14.141 100.91 13.172 Q 100.24 12.203 100.24 10.359 Q 100.24 8.6406 101.06 7.6094 Q 101.88 6.5781 103.26 6.5781 Q 103.63 6.5781 104.01 6.6484 Q 104.38 6.7188 104.81 6.8750 z"/>
</g> <!-- drawing style -->
</g> <!-- clip25 -->
</g> <!-- transform -->
<g transform="matrix(.42289, 0.0000, 0.0000, .42289, -139.13, -80.772)">
<clipPath id="clip26">
  <path d="M 329.00 191.00 L 329.00 588.00 L 895.00 588.00 L 895.00 191.00 z"/>
</clipPath>
<g clip-path="url(#clip26)">
<g stroke-linecap="butt" fill="none" stroke-opacity="1.0000" stroke="#000000">
  <path d="M 107.93 10.419 L 111.93 10.419"/>
</g> <!-- drawing style -->
</g> <!-- clip26 -->
</g> <!-- transform -->
<g transform="matrix(.42289, 0.0000, 0.0000, .42289, -139.13, -80.772)">
<clipPath id="clip27">
  <path d="M 329.00 191.00 L 329.00 588.00 L 895.00 588.00 L 895.00 191.00 z"/>
</clipPath>
<g clip-path="url(#clip27)">
<g fill-opacity="1.0000" fill-rule="nonzero" stroke="none" fill="#000000">
  <path d="M 8.0938 4.4062 Q 7.4531 5.5312 7.1328 6.6328 Q 6.8125 7.7344 6.8125 8.8594 Q 6.8125 9.9844 7.1328 11.094 Q 7.4531 12.203 8.0938 13.312 L 7.3125 13.312 Q 6.5938 12.172 6.2266 11.062 Q 5.8594 9.9531 5.8594 8.8594 Q 5.8594 7.7656 6.2188 6.6641 Q 6.5781 5.5625 7.3125 4.4062 L 8.0938 4.4062 z M 9.3857 8.8594 L 12.026 8.8594 L 12.026 9.6562 L 9.3857 9.6562 L 9.3857 8.8594 z M 15.682 5.3594 Q 14.932 5.3594 14.549 6.1094 Q 14.166 6.8594 14.166 8.3594 Q 14.166 9.8594 14.549 10.609 Q 14.932 11.359 15.682 11.359 Q 16.463 11.359 16.846 10.609 Q 17.229 9.8594 17.229 8.3594 Q 17.229 6.8594 16.846 6.1094 Q 16.463 5.3594 15.682 5.3594 z M 15.682 4.5781 Q 16.916 4.5781 17.564 5.5469 Q 18.213 6.5156 18.213 8.3594 Q 18.213 10.203 17.564 11.172 Q 16.916 12.141 15.682 12.141 Q 14.463 12.141 13.814 11.172 Q 13.166 10.203 13.166 8.3594 Q 13.166 6.5156 13.814 5.5469 Q 14.463 4.5781 15.682 4.5781 z M 19.935 10.766 L 20.966 10.766 L 20.966 12.000 L 19.935 12.000 L 19.935 10.766 z M 23.285 11.172 L 24.910 11.172 L 24.910 5.6094 L 23.145 5.9531 L 23.145 5.0625 L 24.895 4.7031 L 25.879 4.7031 L 25.879 11.172 L 27.488 11.172 L 27.488 12.000 L 23.285 12.000 L 23.285 11.172 z M 29.241 4.7031 L 33.929 4.7031 L 33.929 5.1250 L 31.272 12.000 L 30.241 12.000 L 32.741 5.5469 L 29.241 5.5469 L 29.241 4.7031 z M 35.947 10.766 L 36.979 10.766 L 36.979 11.594 L 36.182 13.156 L 35.541 13.156 L 35.947 11.594 L 35.947 10.766 z M 42.367 11.172 L 43.992 11.172 L 43.992 5.6094 L 42.227 5.9531 L 42.227 5.0625 L 43.977 4.7031 L 44.961 4.7031 L 44.961 11.172 L 46.570 11.172 L 46.570 12.000 L 42.367 12.000 L 42.367 11.172 z M 48.558 10.766 L 49.589 10.766 L 49.589 12.000 L 48.558 12.000 L 48.558 10.766 z M 53.971 7.9688 Q 53.314 7.9688 52.924 8.4219 Q 52.533 8.8750 52.533 9.6562 Q 52.533 10.453 52.924 10.906 Q 53.314 11.359 53.971 11.359 Q 54.643 11.359 55.025 10.906 Q 55.408 10.453 55.408 9.6562 Q 55.408 8.8750 55.025 8.4219 Q 54.643 7.9688 53.971 7.9688 z M 55.939 4.8750 L 55.939 5.7656 Q 55.564 5.5938 55.182 5.5000 Q 54.799 5.4062 54.439 5.4062 Q 53.455 5.4062 52.939 6.0625 Q 52.424 6.7188 52.361 8.0625 Q 52.643 7.6406 53.080 7.4141 Q 53.518 7.1875 54.033 7.1875 Q 55.127 7.1875 55.768 7.8516 Q 56.408 8.5156 56.408 9.6562 Q 56.408 10.781 55.744 11.461 Q 55.080 12.141 53.971 12.141 Q 52.705 12.141 52.041 11.172 Q 51.377 10.203 51.377 8.3594 Q 51.377 6.6406 52.197 5.6094 Q 53.018 4.5781 54.393 4.5781 Q 54.768 4.5781 55.143 4.6484 Q 55.518 4.7188 55.939 4.8750 z M 58.958 11.172 L 62.396 11.172 L 62.396 12.000 L 57.771 12.000 L 57.771 11.172 Q 58.333 10.594 59.302 9.6094 Q 60.271 8.6250 60.521 8.3438 Q 60.989 7.8125 61.177 7.4453 Q 61.364 7.0781 61.364 6.7188 Q 61.364 6.1406 60.958 5.7734 Q 60.552 5.4062 59.896 5.4062 Q 59.427 5.4062 58.919 5.5703 Q 58.411 5.7344 57.817 6.0625 L 57.817 5.0625 Q 58.411 4.8281 58.927 4.7031 Q 59.442 4.5781 59.880 4.5781 Q 61.005 4.5781 61.685 5.1406 Q 62.364 5.7031 62.364 6.6562 Q 62.364 7.1094 62.192 7.5078 Q 62.021 7.9062 61.583 8.4531 Q 61.458 8.5938 60.802 9.2734 Q 60.146 9.9531 58.958 11.172 z M 64.195 4.4062 L 64.977 4.4062 Q 65.711 5.5625 66.078 6.6641 Q 66.445 7.7656 66.445 8.8594 Q 66.445 9.9531 66.078 11.062 Q 65.711 12.172 64.977 13.312 L 64.195 13.312 Q 64.852 12.203 65.172 11.094 Q 65.492 9.9844 65.492 8.8594 Q 65.492 7.7344 65.172 6.6328 Q 64.852 5.5312 64.195 4.4062 z"/>
</g> <!-- drawing style -->
</g> <!-- clip27 -->
</g> <!-- transform -->
<g transform="matrix(.42289, 0.0000, 0.0000, .42289, -139.13, -80.772)">
<clipPath id="clip28">
  <path d="M 329.00 191.00 L 329.00 588.00 L 895.00 588.00 L 895.00 191.00 z"/>
</clipPath>
<g clip-path="url(#clip28)">
<g fill-opacity="1.0000" fill-rule="nonzero" stroke="none" fill="#000000">
  <path d="M 917.09 698.41 Q 916.45 699.53 916.13 700.63 Q 915.81 701.73 915.81 702.86 Q 915.81 703.98 916.13 705.09 Q 916.45 706.20 917.09 707.31 L 916.31 707.31 Q 915.59 706.17 915.23 705.06 Q 914.86 703.95 914.86 702.86 Q 914.86 701.77 915.22 700.66 Q 915.58 699.56 916.31 698.41 L 917.09 698.41 z M 919.14 705.17 L 920.76 705.17 L 920.76 699.61 L 919.00 699.95 L 919.00 699.06 L 920.75 698.70 L 921.73 698.70 L 921.73 705.17 L 923.34 705.17 L 923.34 706.00 L 919.14 706.00 L 919.14 705.17 z M 925.33 704.77 L 926.36 704.77 L 926.36 706.00 L 925.33 706.00 L 925.33 704.77 z M 929.36 705.17 L 932.80 705.17 L 932.80 706.00 L 928.18 706.00 L 928.18 705.17 Q 928.74 704.59 929.71 703.61 Q 930.68 702.62 930.93 702.34 Q 931.40 701.81 931.58 701.45 Q 931.77 701.08 931.77 700.72 Q 931.77 700.14 931.36 699.77 Q 930.96 699.41 930.30 699.41 Q 929.83 699.41 929.33 699.57 Q 928.82 699.73 928.22 700.06 L 928.22 699.06 Q 928.82 698.83 929.33 698.70 Q 929.85 698.58 930.29 698.58 Q 931.41 698.58 932.09 699.14 Q 932.77 699.70 932.77 700.66 Q 932.77 701.11 932.60 701.51 Q 932.43 701.91 931.99 702.45 Q 931.86 702.59 931.21 703.27 Q 930.55 703.95 929.36 705.17 z M 934.90 705.84 L 934.90 704.95 Q 935.27 705.12 935.66 705.22 Q 936.04 705.31 936.40 705.31 Q 937.38 705.31 937.90 704.66 Q 938.41 704.00 938.48 702.66 Q 938.20 703.08 937.77 703.30 Q 937.34 703.53 936.80 703.53 Q 935.71 703.53 935.07 702.87 Q 934.43 702.20 934.43 701.06 Q 934.43 699.94 935.09 699.26 Q 935.76 698.58 936.87 698.58 Q 938.13 698.58 938.80 699.55 Q 939.46 700.52 939.46 702.36 Q 939.46 704.08 938.65 705.11 Q 937.84 706.14 936.45 706.14 Q 936.07 706.14 935.70 706.07 Q 935.32 706.00 934.90 705.84 z M 936.87 702.75 Q 937.52 702.75 937.91 702.30 Q 938.30 701.84 938.30 701.06 Q 938.30 700.27 937.91 699.81 Q 937.52 699.36 936.87 699.36 Q 936.20 699.36 935.81 699.81 Q 935.43 700.27 935.43 701.06 Q 935.43 701.84 935.81 702.30 Q 936.20 702.75 936.87 702.75 z M 941.34 704.77 L 942.37 704.77 L 942.37 705.59 L 941.57 707.16 L 940.93 707.16 L 941.34 705.59 L 941.34 704.77 z M 949.70 699.36 Q 948.95 699.36 948.56 700.11 Q 948.18 700.86 948.18 702.36 Q 948.18 703.86 948.56 704.61 Q 948.95 705.36 949.70 705.36 Q 950.48 705.36 950.86 704.61 Q 951.24 703.86 951.24 702.36 Q 951.24 700.86 950.86 700.11 Q 950.48 699.36 949.70 699.36 z M 949.70 698.58 Q 950.93 698.58 951.58 699.55 Q 952.23 700.52 952.23 702.36 Q 952.23 704.20 951.58 705.17 Q 950.93 706.14 949.70 706.14 Q 948.48 706.14 947.83 705.17 Q 947.18 704.20 947.18 702.36 Q 947.18 700.52 947.83 699.55 Q 948.48 698.58 949.70 698.58 z M 953.95 704.77 L 954.98 704.77 L 954.98 706.00 L 953.95 706.00 L 953.95 704.77 z M 957.14 698.70 L 961.02 698.70 L 961.02 699.55 L 958.05 699.55 L 958.05 701.33 Q 958.27 701.25 958.48 701.22 Q 958.69 701.19 958.91 701.19 Q 960.13 701.19 960.84 701.85 Q 961.55 702.52 961.55 703.66 Q 961.55 704.84 960.82 705.49 Q 960.10 706.14 958.75 706.14 Q 958.30 706.14 957.82 706.06 Q 957.35 705.98 956.83 705.83 L 956.83 704.84 Q 957.28 705.08 957.75 705.20 Q 958.22 705.31 958.74 705.31 Q 959.58 705.31 960.07 704.87 Q 960.57 704.42 960.57 703.66 Q 960.57 702.91 960.07 702.46 Q 959.58 702.02 958.74 702.02 Q 958.35 702.02 957.95 702.10 Q 957.55 702.19 957.14 702.38 L 957.14 698.70 z M 963.51 698.70 L 967.38 698.70 L 967.38 699.55 L 964.41 699.55 L 964.41 701.33 Q 964.63 701.25 964.84 701.22 Q 965.05 701.19 965.27 701.19 Q 966.49 701.19 967.20 701.85 Q 967.91 702.52 967.91 703.66 Q 967.91 704.84 967.19 705.49 Q 966.46 706.14 965.12 706.14 Q 964.66 706.14 964.19 706.06 Q 963.71 705.98 963.19 705.83 L 963.19 704.84 Q 963.65 705.08 964.12 705.20 Q 964.58 705.31 965.10 705.31 Q 965.94 705.31 966.44 704.87 Q 966.93 704.42 966.93 703.66 Q 966.93 702.91 966.44 702.46 Q 965.94 702.02 965.10 702.02 Q 964.71 702.02 964.31 702.10 Q 963.91 702.19 963.51 702.38 L 963.51 698.70 z M 969.59 698.41 L 970.37 698.41 Q 971.10 699.56 971.47 700.66 Q 971.84 701.77 971.84 702.86 Q 971.84 703.95 971.47 705.06 Q 971.10 706.17 970.37 707.31 L 969.59 707.31 Q 970.24 706.20 970.56 705.09 Q 970.88 703.98 970.88 702.86 Q 970.88 701.73 970.56 700.63 Q 970.24 699.53 969.59 698.41 z"/>
</g> <!-- drawing style -->
</g> <!-- clip28 -->
</g> <!-- transform -->
<g id="misc">
</g><!-- misc -->
<g id="layer0">
<g transform="matrix(.42289, 0.0000, 0.0000, .42289, -139.13, -80.772)">
<clipPath id="clip29">
  <path d="M 329.00 191.00 L 329.00 588.00 L 895.00 588.00 L 895.00 191.00 z"/>
</clipPath>
<g clip-path="url(#clip29)">
<g stroke-linejoin="round" stroke-width="2.5000" stroke-linecap="round" fill="none" stroke-opacity="1.0000" stroke="#0000ff">
  <path d="M 256.22 717.39 L 260.05 709.64 L 263.87 702.00 L 267.70 694.45 L 271.52 687.02 L 275.34 679.68 L 279.17 672.45 L 282.99 665.32 L 286.82 658.30 L 290.64 651.38 L 294.46 644.56 L 298.29 637.85 L 302.11 631.24 L 305.94 624.73 L 309.76 618.33 L 313.59 612.03 L 317.41 605.83 L 321.23 599.73 L 325.06 593.74 L 328.88 587.85 L 332.71 582.07 L 336.53 576.38 L 340.36 570.80 L 344.18 565.32 L 348.00 559.93 L 351.83 554.65 L 355.65 549.47 L 359.48 544.40 L 367.12 534.54 L 374.77 525.07 L 382.42 516.01 L 390.07 507.33 L 397.72 499.03 L 405.37 491.12 L 413.02 483.59 L 420.66 476.43 L 428.31 469.64 L 435.96 463.21 L 443.61 457.13 L 451.26 451.41 L 458.91 446.04 L 466.55 441.00 L 474.20 436.30 L 481.85 431.93 L 489.50 427.87 L 497.15 424.12 L 504.80 420.68 L 512.45 417.54 L 520.09 414.68 L 527.74 412.10 L 535.39 409.80 L 543.04 407.75 L 550.69 405.96 L 558.34 404.41 L 565.98 403.10 L 573.63 402.00 L 581.28 401.12 L 588.93 400.45 L 596.58 399.96 L 604.23 399.66 L 611.88 399.52 L 619.52 399.54 L 627.17 399.70 L 634.82 400.00 L 642.47 400.42 L 650.12 400.95 L 657.77 401.57 L 665.41 402.27 L 673.06 403.04 L 680.71 403.86 L 688.36 404.72 L 696.01 405.61 L 703.66 406.50 L 711.30 407.39 L 718.95 408.27 L 726.60 409.10 L 734.25 409.89 L 741.90 410.60 L 749.55 411.24 L 757.20 411.77 L 764.84 412.18 L 772.49 412.47 L 780.14 412.59 L 787.79 412.55 L 795.44 412.33 L 803.09 411.89 L 810.73 411.23 L 818.38 410.33 L 826.03 409.17 L 833.68 407.72 L 841.33 405.97 L 848.98 403.90 L 856.62 401.49 L 864.27 398.72 L 871.92 395.57 L 879.57 392.01 L 887.22 388.03 L 894.87 383.60 L 902.52 378.70 L 910.16 373.31 L 917.81 367.41 L 925.46 360.98 L 933.11 353.99 L 940.76 346.41 L 948.41 338.23 L 956.05 329.43 L 963.70 319.97 L 967.53 314.98 L 971.35 309.83 L 975.18 304.50 L 979.00 298.99"/>
</g> <!-- drawing style -->
</g> <!-- clip29 -->
</g> <!-- transform -->
<g transform="matrix(.42289, 0.0000, 0.0000, .42289, -139.13, -80.772)">
<clipPath id="clip30">
  <path d="M 329.00 191.00 L 329.00 588.00 L 895.00 588.00 L 895.00 191.00 z"/>
</clipPath>
<g clip-path="url(#clip30)">
<g stroke-linejoin="round" stroke-linecap="round" fill="none" stroke-opacity="1.0000" stroke="#000000">
  <path d="M 208.84 716.00 L 834.61 -5.0000"/>
</g> <!-- drawing style -->
</g> <!-- clip30 -->
</g> <!-- transform -->
<g transform="matrix(.42289, 0.0000, 0.0000, .42289, -139.13, -80.772)">
<clipPath id="clip31">
  <path d="M 329.00 191.00 L 329.00 588.00 L 895.00 588.00 L 895.00 191.00 z"/>
</clipPath>
<g clip-path="url(#clip31)">
<g stroke-linejoin="round" stroke-linecap="round" fill="none" stroke-opacity="1.0000" stroke="#000000">
  <path d="M -5.0000 658.03 L 984.00 197.34"/>
</g> <!-- drawing style -->
</g> <!-- clip31 -->
</g> <!-- transform -->
<g transform="matrix(.42289, 0.0000, 0.0000, .42289, -139.13, -80.772)">
<clipPath id="clip32">
  <path d="M 329.00 191.00 L 329.00 588.00 L 895.00 588.00 L 895.00 191.00 z"/>
</clipPath>
<g clip-path="url(#clip32)">
<g stroke-linejoin="round" stroke-linecap="round" fill="none" stroke-opacity="1.0000" stroke="#000000">
  <path d="M -5.0000 361.95 L 984.00 420.71"/>
</g> <!-- drawing style -->
</g> <!-- clip32 -->
</g> <!-- transform -->
<g transform="matrix(.42289, 0.0000, 0.0000, .42289, -139.13, -80.772)">
<clipPath id="clip33">
  <path d="M 329.00 191.00 L 329.00 588.00 L 895.00 588.00 L 895.00 191.00 z"/>
</clipPath>
<g clip-path="url(#clip33)">
<g stroke-linejoin="round" stroke-width="2.5000" stroke-linecap="round" fill="none" stroke-opacity="1.0000" stroke="#ff0000">
  <path d="M 383.62 514.62 L 486.74 395.81"/>
</g> <!-- drawing style -->
</g> <!-- clip33 -->
</g> <!-- transform -->
<g transform="matrix(.42289, 0.0000, 0.0000, .42289, -139.13, -80.772)">
<clipPath id="clip34">
  <path d="M 329.00 191.00 L 329.00 588.00 L 895.00 588.00 L 895.00 191.00 z"/>
</clipPath>
<g clip-path="url(#clip34)">
<g fill-opacity="1.0000" fill-rule="evenodd" stroke="none" fill="#ff0000">
  <path d="M 497.88 382.97 L 489.95 398.60 L 483.53 393.02 z"/>
</g> <!-- drawing style -->
</g> <!-- clip34 -->
</g> <!-- transform -->
<g transform="matrix(.42289, 0.0000, 0.0000, .42289, -139.13, -80.772)">
<clipPath id="clip35">
  <path d="M 329.00 191.00 L 329.00 588.00 L 895.00 588.00 L 895.00 191.00 z"/>
</clipPath>
<g clip-path="url(#clip35)">
<g stroke-linejoin="round" stroke-width="2.5000" stroke-linecap="round" fill="none" stroke-opacity="1.0000" stroke="#ff0000">
  <path d="M 497.88 382.97 L 625.67 323.45"/>
</g> <!-- drawing style -->
</g> <!-- clip35 -->
</g> <!-- transform -->
<g transform="matrix(.42289, 0.0000, 0.0000, .42289, -139.13, -80.772)">
<clipPath id="clip36">
  <path d="M 329.00 191.00 L 329.00 588.00 L 895.00 588.00 L 895.00 191.00 z"/>
</clipPath>
<g clip-path="url(#clip36)">
<g fill-opacity="1.0000" fill-rule="evenodd" stroke="none" fill="#ff0000">
  <path d="M 641.08 316.27 L 627.46 327.30 L 623.87 319.59 z"/>
</g> <!-- drawing style -->
</g> <!-- clip36 -->
</g> <!-- transform -->
<g transform="matrix(.42289, 0.0000, 0.0000, .42289, -139.13, -80.772)">
<clipPath id="clip37">
  <path d="M 329.00 191.00 L 329.00 588.00 L 895.00 588.00 L 895.00 191.00 z"/>
</clipPath>
<g clip-path="url(#clip37)">
<g stroke-linejoin="round" stroke-width="2.5000" stroke-linecap="round" fill="none" stroke-opacity="1.0000" stroke="#ff0000">
  <path d="M 641.08 316.27 L 772.02 324.05"/>
</g> <!-- drawing style -->
</g> <!-- clip37 -->
</g> <!-- transform -->
<g transform="matrix(.42289, 0.0000, 0.0000, .42289, -139.13, -80.772)">
<clipPath id="clip38">
  <path d="M 329.00 191.00 L 329.00 588.00 L 895.00 588.00 L 895.00 191.00 z"/>
</clipPath>
<g clip-path="url(#clip38)">
<g fill-opacity="1.0000" fill-rule="evenodd" stroke="none" fill="#ff0000">
  <path d="M 788.99 325.06 L 771.77 328.29 L 772.28 319.81 z"/>
</g> <!-- drawing style -->
</g> <!-- clip38 -->
</g> <!-- transform -->
<g transform="matrix(.42289, 0.0000, 0.0000, .42289, -139.13, -80.772)">
<clipPath id="clip39">
  <path d="M 329.00 191.00 L 329.00 588.00 L 895.00 588.00 L 895.00 191.00 z"/>
</clipPath>
<g clip-path="url(#clip39)">
<g fill-opacity="1.0000" fill-rule="nonzero" stroke="none" fill="#7d7dff">
  <path d="M 386.62 514.62 C 386.62 516.27 385.28 517.62 383.62 517.62 C 381.97 517.62 380.62 516.27 380.62 514.62 C 380.62 512.96 381.97 511.62 383.62 511.62 C 385.28 511.62 386.62 512.96 386.62 514.62 z"/>
</g> <!-- drawing style -->
</g> <!-- clip39 -->
</g> <!-- transform -->
<g transform="matrix(.42289, 0.0000, 0.0000, .42289, -139.13, -80.772)">
<clipPath id="clip40">
  <path d="M 329.00 191.00 L 329.00 588.00 L 895.00 588.00 L 895.00 191.00 z"/>
</clipPath>
<g clip-path="url(#clip40)">
<g stroke-linejoin="round" stroke-linecap="round" fill="none" stroke-opacity="1.0000" stroke="#000000">
  <path d="M 386.62 514.62 C 386.62 516.27 385.28 517.62 383.62 517.62 C 381.97 517.62 380.62 516.27 380.62 514.62 C 380.62 512.96 381.97 511.62 383.62 511.62 C 385.28 511.62 386.62 512.96 386.62 514.62 z"/>
</g> <!-- drawing style -->
</g> <!-- clip40 -->
</g> <!-- transform -->
<g transform="matrix(.42289, 0.0000, 0.0000, .42289, -139.13, -80.772)">
<clipPath id="clip41">
  <path d="M 329.00 191.00 L 329.00 588.00 L 895.00 588.00 L 895.00 191.00 z"/>
</clipPath>
<g clip-path="url(#clip41)">
<g fill-opacity="1.0000" fill-rule="nonzero" stroke="none" fill="#7d7dff">
  <path d="M 500.88 382.97 C 500.88 384.63 499.54 385.97 497.88 385.97 C 496.23 385.97 494.88 384.63 494.88 382.97 C 494.88 381.31 496.23 379.97 497.88 379.97 C 499.54 379.97 500.88 381.31 500.88 382.97 z"/>
</g> <!-- drawing style -->
</g> <!-- clip41 -->
</g> <!-- transform -->
<g transform="matrix(.42289, 0.0000, 0.0000, .42289, -139.13, -80.772)">
<clipPath id="clip42">
  <path d="M 329.00 191.00 L 329.00 588.00 L 895.00 588.00 L 895.00 191.00 z"/>
</clipPath>
<g clip-path="url(#clip42)">
<g stroke-linejoin="round" stroke-linecap="round" fill="none" stroke-opacity="1.0000" stroke="#000000">
  <path d="M 500.88 382.97 C 500.88 384.63 499.54 385.97 497.88 385.97 C 496.23 385.97 494.88 384.63 494.88 382.97 C 494.88 381.31 496.23 379.97 497.88 379.97 C 499.54 379.97 500.88 381.31 500.88 382.97 z"/>
</g> <!-- drawing style -->
</g> <!-- clip42 -->
</g> <!-- transform -->
<g transform="matrix(.42289, 0.0000, 0.0000, .42289, -139.13, -80.772)">
<clipPath id="clip43">
  <path d="M 329.00 191.00 L 329.00 588.00 L 895.00 588.00 L 895.00 191.00 z"/>
</clipPath>
<g clip-path="url(#clip43)">
<g fill-opacity="1.0000" fill-rule="nonzero" stroke="none" fill="#444444">
  <path d="M 500.88 423.78 C 500.88 425.44 499.54 426.78 497.88 426.78 C 496.23 426.78 494.88 425.44 494.88 423.78 C 494.88 422.12 496.23 420.78 497.88 420.78 C 499.54 420.78 500.88 422.12 500.88 423.78 z"/>
</g> <!-- drawing style -->
</g> <!-- clip43 -->
</g> <!-- transform -->
<g transform="matrix(.42289, 0.0000, 0.0000, .42289, -139.13, -80.772)">
<clipPath id="clip44">
  <path d="M 329.00 191.00 L 329.00 588.00 L 895.00 588.00 L 895.00 191.00 z"/>
</clipPath>
<g clip-path="url(#clip44)">
<g stroke-linejoin="round" stroke-linecap="round" fill="none" stroke-opacity="1.0000" stroke="#000000">
  <path d="M 500.88 423.78 C 500.88 425.44 499.54 426.78 497.88 426.78 C 496.23 426.78 494.88 425.44 494.88 423.78 C 494.88 422.12 496.23 420.78 497.88 420.78 C 499.54 420.78 500.88 422.12 500.88 423.78 z"/>
</g> <!-- drawing style -->
</g> <!-- clip44 -->
</g> <!-- transform -->
<g transform="matrix(.42289, 0.0000, 0.0000, .42289, -139.13, -80.772)">
<clipPath id="clip45">
  <path d="M 329.00 191.00 L 329.00 588.00 L 895.00 588.00 L 895.00 191.00 z"/>
</clipPath>
<g clip-path="url(#clip45)">
<g fill-opacity="1.0000" fill-rule="nonzero" stroke="none" fill="#7d7dff">
  <path d="M 644.08 316.27 C 644.08 317.93 642.74 319.27 641.08 319.27 C 639.42 319.27 638.08 317.93 638.08 316.27 C 638.08 314.61 639.42 313.27 641.08 313.27 C 642.74 313.27 644.08 314.61 644.08 316.27 z"/>
</g> <!-- drawing style -->
</g> <!-- clip45 -->
</g> <!-- transform -->
<g transform="matrix(.42289, 0.0000, 0.0000, .42289, -139.13, -80.772)">
<clipPath id="clip46">
  <path d="M 329.00 191.00 L 329.00 588.00 L 895.00 588.00 L 895.00 191.00 z"/>
</clipPath>
<g clip-path="url(#clip46)">
<g stroke-linejoin="round" stroke-linecap="round" fill="none" stroke-opacity="1.0000" stroke="#000000">
  <path d="M 644.08 316.27 C 644.08 317.93 642.74 319.27 641.08 319.27 C 639.42 319.27 638.08 317.93 638.08 316.27 C 638.08 314.61 639.42 313.27 641.08 313.27 C 642.74 313.27 644.08 314.61 644.08 316.27 z"/>
</g> <!-- drawing style -->
</g> <!-- clip46 -->
</g> <!-- transform -->
<g transform="matrix(.42289, 0.0000, 0.0000, .42289, -139.13, -80.772)">
<clipPath id="clip47">
  <path d="M 329.00 191.00 L 329.00 588.00 L 895.00 588.00 L 895.00 191.00 z"/>
</clipPath>
<g clip-path="url(#clip47)">
<g fill-opacity="1.0000" fill-rule="nonzero" stroke="none" fill="#444444">
  <path d="M 644.08 400.34 C 644.08 401.99 642.74 403.34 641.08 403.34 C 639.42 403.34 638.08 401.99 638.08 400.34 C 638.08 398.68 639.42 397.34 641.08 397.34 C 642.74 397.34 644.08 398.68 644.08 400.34 z"/>
</g> <!-- drawing style -->
</g> <!-- clip47 -->
</g> <!-- transform -->
<g transform="matrix(.42289, 0.0000, 0.0000, .42289, -139.13, -80.772)">
<clipPath id="clip48">
  <path d="M 329.00 191.00 L 329.00 588.00 L 895.00 588.00 L 895.00 191.00 z"/>
</clipPath>
<g clip-path="url(#clip48)">
<g stroke-linejoin="round" stroke-linecap="round" fill="none" stroke-opacity="1.0000" stroke="#000000">
  <path d="M 644.08 400.34 C 644.08 401.99 642.74 403.34 641.08 403.34 C 639.42 403.34 638.08 401.99 638.08 400.34 C 638.08 398.68 639.42 397.34 641.08 397.34 C 642.74 397.34 644.08 398.68 644.08 400.34 z"/>
</g> <!-- drawing style -->
</g> <!-- clip48 -->
</g> <!-- transform -->
<g transform="matrix(.42289, 0.0000, 0.0000, .42289, -139.13, -80.772)">
<clipPath id="clip49">
  <path d="M 329.00 191.00 L 329.00 588.00 L 895.00 588.00 L 895.00 191.00 z"/>
</clipPath>
<g clip-path="url(#clip49)">
<g fill-opacity="1.0000" fill-rule="nonzero" stroke="none" fill="#7d7dff">
  <path d="M 791.99 325.06 C 791.99 326.71 790.65 328.06 788.99 328.06 C 787.34 328.06 785.99 326.71 785.99 325.06 C 785.99 323.40 787.34 322.06 788.99 322.06 C 790.65 322.06 791.99 323.40 791.99 325.06 z"/>
</g> <!-- drawing style -->
</g> <!-- clip49 -->
</g> <!-- transform -->
<g transform="matrix(.42289, 0.0000, 0.0000, .42289, -139.13, -80.772)">
<clipPath id="clip50">
  <path d="M 329.00 191.00 L 329.00 588.00 L 895.00 588.00 L 895.00 191.00 z"/>
</clipPath>
<g clip-path="url(#clip50)">
<g stroke-linejoin="round" stroke-linecap="round" fill="none" stroke-opacity="1.0000" stroke="#000000">
  <path d="M 791.99 325.06 C 791.99 326.71 790.65 328.06 788.99 328.06 C 787.34 328.06 785.99 326.71 785.99 325.06 C 785.99 323.40 787.34 322.06 788.99 322.06 C 790.65 322.06 791.99 323.40 791.99 325.06 z"/>
</g> <!-- drawing style -->
</g> <!-- clip50 -->
</g> <!-- transform -->
</g><!-- layer0 -->
</g> <!-- default stroke -->
</svg> <!-- bounding box -->
