<?xml version="1.0" encoding="utf-8" standalone="no"?>
<!DOCTYPE svg PUBLIC "-//W3C//DTD SVG 1.1//EN"
  "http://www.w3.org/Graphics/SVG/1.1/DTD/svg11.dtd">
<!-- Created with matplotlib (http://matplotlib.org/) -->
<svg height="311pt" version="1.1" viewBox="0 0 1161 311" width="1161pt" xmlns="http://www.w3.org/2000/svg" xmlns:xlink="http://www.w3.org/1999/xlink">
 <defs>
  <style type="text/css">
*{stroke-linecap:butt;stroke-linejoin:round;}
  </style>
 </defs>
 <g id="figure_1">
  <g id="patch_1">
   <path d="
M0 311.917
L1161.14 311.917
L1161.14 0
L0 0
z
" style="fill:#ffffff;"/>
  </g>
  <g id="axes_1">
   <g id="patch_2">
    <path d="
M32.2453 291.039
L1148.25 291.039
L1148.25 12.0391
L32.2453 12.0391
z
" style="fill:#ffffff;"/>
   </g>
   <g id="line2d_1">
    <path clip-path="url(#p08d319014b)" d="
M32.2453 291.039
L43.4053 291.039
L44.8003 288.595
L46.1953 145.101
L47.5903 19.9669
L50.3803 67.0879
L51.7753 88.3997
L53.1703 107.683
L54.5653 125.132
L55.9603 140.92
L57.3553 155.206
L58.7503 168.132
L60.1453 179.828
L61.5403 190.411
L62.9353 199.987
L64.3303 208.652
L65.7253 216.492
L67.1203 223.586
L68.5153 230.005
L69.9103 235.813
L71.3053 241.069
L72.7003 245.824
L74.0953 250.127
L75.4903 254.02
L76.8853 257.543
L78.2803 260.731
L79.6753 263.615
L81.0703 266.225
L82.4653 268.586
L83.8603 270.723
L86.6503 274.405
L89.4403 277.421
L92.2303 279.889
L95.0203 281.91
L97.8103 283.565
L100.6 284.92
L103.39 286.029
L106.18 286.937
L110.365 288
L114.55 288.788
L118.735 289.371
L124.315 289.921
L131.29 290.361
L141.055 290.702
L155.005 290.915
L180.115 291.019
L273.58 291.039
L364.255 291.039
L365.65 288.595
L367.045 145.101
L368.44 19.9669
L371.23 67.0879
L372.625 88.3997
L374.02 107.683
L375.415 125.132
L376.81 140.92
L378.205 155.206
L379.6 168.132
L380.995 179.828
L382.39 190.411
L383.785 199.987
L385.18 208.652
L386.575 216.492
L387.97 223.586
L389.365 230.005
L390.76 235.813
L392.155 241.069
L393.55 245.824
L394.945 250.127
L396.34 254.02
L397.735 257.543
L399.13 260.731
L400.525 263.615
L401.92 266.225
L403.315 268.586
L404.71 270.723
L407.5 274.405
L410.29 277.421
L413.08 279.889
L415.87 281.91
L418.66 283.565
L421.45 284.92
L424.24 286.029
L427.03 286.937
L431.215 288
L435.4 288.788
L439.585 289.371
L445.165 289.921
L452.14 290.361
L461.905 290.702
L475.855 290.915
L500.965 291.019
L594.43 291.039
L685.105 291.039
L686.5 288.595
L687.895 145.101
L689.29 19.9669
L692.08 67.0879
L693.475 88.3997
L694.87 107.683
L696.265 125.132
L697.66 140.92
L699.055 155.206
L700.45 168.132
L701.845 179.828
L703.24 190.411
L704.635 199.987
L706.03 208.652
L707.425 216.492
L708.82 223.586
L710.215 230.005
L711.61 235.813
L713.005 241.069
L714.4 245.824
L715.795 250.127
L717.19 254.02
L718.585 257.543
L719.98 260.731
L721.375 263.615
L722.77 266.225
L724.165 268.586
L725.56 270.723
L728.35 274.405
L731.14 277.421
L733.93 279.889
L736.72 281.91
L739.51 283.565
L742.3 284.92
L745.09 286.029
L747.88 286.937
L752.065 288
L756.25 288.788
L760.435 289.371
L766.015 289.921
L772.99 290.361
L782.755 290.702
L796.705 290.915
L821.815 291.019
L915.28 291.039
L1008.75 291.039
L1008.75 291.039" style="fill:none;stroke:#0000ff;stroke-linecap:square;"/>
   </g>
   <g id="line2d_2">
    <path clip-path="url(#p08d319014b)" d="
M32.2453 291.039
L44.8003 291.027
L46.1953 284.138
L48.9853 222.389
L50.3803 197.569
L51.7753 178.094
L53.1703 163.173
L54.5653 152.114
L55.9603 144.318
L57.3553 139.264
L58.7503 136.5
L60.1453 135.637
L61.5403 136.338
L62.9353 138.312
L64.3303 141.312
L65.7253 145.124
L67.1203 149.566
L69.9103 159.748
L74.0953 176.593
L79.6753 198.966
L82.4653 209.369
L85.2553 219.026
L88.0453 227.866
L90.8353 235.867
L93.6253 243.043
L96.4153 249.43
L99.2053 255.079
L101.995 260.047
L104.785 264.396
L107.575 268.186
L110.365 271.478
L113.155 274.327
L115.945 276.786
L118.735 278.903
L121.525 280.72
L124.315 282.278
L127.105 283.61
L129.895 284.747
L134.08 286.144
L138.265 287.24
L142.45 288.097
L148.03 288.952
L153.61 289.564
L160.585 290.086
L168.955 290.478
L180.115 290.764
L196.855 290.946
L228.94 291.028
L365.65 291.027
L367.045 284.138
L369.835 222.389
L371.23 197.569
L372.625 178.094
L374.02 163.173
L375.415 152.114
L376.81 144.318
L378.205 139.264
L379.6 136.5
L380.995 135.637
L382.39 136.338
L383.785 138.312
L385.18 141.312
L386.575 145.124
L387.97 149.566
L390.76 159.748
L394.945 176.593
L400.525 198.966
L403.315 209.369
L406.105 219.026
L408.895 227.866
L411.685 235.867
L414.475 243.043
L417.265 249.43
L420.055 255.079
L422.845 260.047
L425.635 264.396
L428.425 268.186
L431.215 271.478
L434.005 274.327
L436.795 276.786
L439.585 278.903
L442.375 280.72
L445.165 282.278
L447.955 283.61
L450.745 284.747
L454.93 286.144
L459.115 287.24
L463.3 288.097
L468.88 288.952
L474.46 289.564
L481.435 290.086
L489.805 290.478
L500.965 290.764
L517.705 290.946
L549.79 291.028
L686.5 291.027
L687.895 284.138
L690.685 222.389
L692.08 197.569
L693.475 178.094
L694.87 163.173
L696.265 152.114
L697.66 144.318
L699.055 139.264
L700.45 136.5
L701.845 135.637
L703.24 136.338
L704.635 138.312
L706.03 141.312
L707.425 145.124
L708.82 149.566
L711.61 159.748
L715.795 176.593
L721.375 198.966
L724.165 209.369
L726.955 219.026
L729.745 227.866
L732.535 235.867
L735.325 243.043
L738.115 249.43
L740.905 255.079
L743.695 260.047
L746.485 264.396
L749.275 268.186
L752.065 271.478
L754.855 274.327
L757.645 276.786
L760.435 278.903
L763.225 280.72
L766.015 282.278
L768.805 283.61
L771.595 284.747
L775.78 286.144
L779.965 287.24
L784.15 288.097
L789.73 288.952
L795.31 289.564
L802.285 290.086
L810.655 290.478
L821.815 290.764
L838.555 290.946
L870.64 291.028
L1008.75 291.039
L1008.75 291.039" style="fill:none;stroke:#008000;stroke-linecap:square;"/>
   </g>
   <g id="line2d_3">
    <path clip-path="url(#p08d319014b)" d="
M32.2453 291.039
L44.8003 291.039
L46.1953 290.765
L47.5903 287.96
L48.9853 281.068
L50.3803 271.125
L51.7753 259.194
L58.7503 193.658
L60.1453 182.258
L61.5403 171.938
L62.9353 162.783
L64.3303 154.833
L65.7253 148.097
L67.1203 142.555
L68.5153 138.165
L69.9103 134.874
L71.3053 132.613
L72.7003 131.311
L74.0953 130.89
L75.4903 131.27
L76.8853 132.371
L78.2803 134.115
L79.6753 136.427
L81.0703 139.233
L82.4653 142.466
L85.2553 149.955
L88.0453 158.43
L92.2303 172.161
L99.2053 195.421
L103.39 208.573
L106.18 216.771
L108.97 224.444
L111.76 231.559
L114.55 238.107
L117.34 244.091
L120.13 249.527
L122.92 254.437
L125.71 258.852
L128.5 262.805
L131.29 266.328
L134.08 269.459
L136.87 272.231
L139.66 274.678
L142.45 276.832
L145.24 278.723
L148.03 280.379
L150.82 281.827
L153.61 283.089
L157.795 284.681
L161.98 285.969
L166.165 287.007
L170.35 287.84
L175.93 288.697
L181.51 289.331
L188.485 289.894
L196.855 290.334
L208.015 290.674
L223.36 290.893
L249.865 291.01
L330.775 291.039
L365.65 291.039
L367.045 290.765
L368.44 287.96
L369.835 281.068
L371.23 271.125
L372.625 259.194
L379.6 193.658
L380.995 182.258
L382.39 171.938
L383.785 162.783
L385.18 154.833
L386.575 148.097
L387.97 142.555
L389.365 138.165
L390.76 134.874
L392.155 132.613
L393.55 131.311
L394.945 130.89
L396.34 131.27
L397.735 132.371
L399.13 134.115
L400.525 136.427
L401.92 139.233
L403.315 142.466
L406.105 149.955
L408.895 158.43
L413.08 172.161
L420.055 195.421
L424.24 208.573
L427.03 216.771
L429.82 224.444
L432.61 231.559
L435.4 238.107
L438.19 244.091
L440.98 249.527
L443.77 254.437
L446.56 258.852
L449.35 262.805
L452.14 266.328
L454.93 269.459
L457.72 272.231
L460.51 274.678
L463.3 276.832
L466.09 278.723
L468.88 280.379
L471.67 281.827
L474.46 283.089
L478.645 284.681
L482.83 285.969
L487.015 287.007
L491.2 287.84
L496.78 288.697
L502.36 289.331
L509.335 289.894
L517.705 290.334
L528.865 290.674
L544.21 290.893
L570.715 291.01
L651.625 291.039
L686.5 291.039
L687.895 290.765
L689.29 287.96
L690.685 281.068
L692.08 271.125
L693.475 259.194
L700.45 193.658
L701.845 182.258
L703.24 171.938
L704.635 162.783
L706.03 154.833
L707.425 148.097
L708.82 142.555
L710.215 138.165
L711.61 134.874
L713.005 132.613
L714.4 131.311
L715.795 130.89
L717.19 131.27
L718.585 132.371
L719.98 134.115
L721.375 136.427
L722.77 139.233
L724.165 142.466
L726.955 149.955
L729.745 158.43
L733.93 172.161
L740.905 195.421
L745.09 208.573
L747.88 216.771
L750.67 224.444
L753.46 231.559
L756.25 238.107
L759.04 244.091
L761.83 249.527
L764.62 254.437
L767.41 258.852
L770.2 262.805
L772.99 266.328
L775.78 269.459
L778.57 272.231
L781.36 274.678
L784.15 276.832
L786.94 278.723
L789.73 280.379
L792.52 281.827
L795.31 283.089
L799.495 284.681
L803.68 285.969
L807.865 287.007
L812.05 287.84
L817.63 288.697
L823.21 289.331
L830.185 289.894
L838.555 290.334
L849.715 290.674
L865.06 290.893
L891.565 291.01
L972.475 291.039
L1008.75 291.039
L1008.75 291.039" style="fill:none;stroke:#ff0000;stroke-linecap:square;"/>
   </g>
   <g id="patch_3">
    <path d="
M32.2453 291.039
L1148.25 291.039" style="fill:none;stroke:#000000;stroke-linecap:square;stroke-linejoin:miter;"/>
   </g>
   <g id="patch_4">
    <path d="
M1148.25 291.039
L1148.25 12.0391" style="fill:none;stroke:#000000;stroke-linecap:square;stroke-linejoin:miter;"/>
   </g>
   <g id="patch_5">
    <path d="
M32.2453 291.039
L32.2453 12.0391" style="fill:none;stroke:#000000;stroke-linecap:square;stroke-linejoin:miter;"/>
   </g>
   <g id="patch_6">
    <path d="
M32.2453 12.0391
L1148.25 12.0391" style="fill:none;stroke:#000000;stroke-linecap:square;stroke-linejoin:miter;"/>
   </g>
   <g id="matplotlib.axis_1">
    <g id="xtick_1">
     <g id="line2d_4">
      <defs>
       <path d="
M0 0
L0 -4" id="mc7db9fdffb" style="stroke:#000000;stroke-width:0.5;"/>
      </defs>
      <g>
       <use style="stroke:#000000;stroke-width:0.5;" x="32.2453125" xlink:href="#mc7db9fdffb" y="291.0390625"/>
      </g>
     </g>
     <g id="line2d_5">
      <defs>
       <path d="
M0 0
L0 4" id="m5a7d422ac3" style="stroke:#000000;stroke-width:0.5;"/>
      </defs>
      <g>
       <use style="stroke:#000000;stroke-width:0.5;" x="32.2453125" xlink:href="#m5a7d422ac3" y="12.0390625"/>
      </g>
     </g>
     <g id="text_1">
      <!-- 0 -->
      <defs>
       <path d="
M31.7812 66.4062
Q24.1719 66.4062 20.3281 58.9062
Q16.5 51.4219 16.5 36.375
Q16.5 21.3906 20.3281 13.8906
Q24.1719 6.39062 31.7812 6.39062
Q39.4531 6.39062 43.2812 13.8906
Q47.125 21.3906 47.125 36.375
Q47.125 51.4219 43.2812 58.9062
Q39.4531 66.4062 31.7812 66.4062
M31.7812 74.2188
Q44.0469 74.2188 50.5156 64.5156
Q56.9844 54.8281 56.9844 36.375
Q56.9844 17.9688 50.5156 8.26562
Q44.0469 -1.42188 31.7812 -1.42188
Q19.5312 -1.42188 13.0625 8.26562
Q6.59375 17.9688 6.59375 36.375
Q6.59375 54.8281 13.0625 64.5156
Q19.5312 74.2188 31.7812 74.2188" id="BitstreamVeraSans-Roman-30"/>
      </defs>
      <g transform="translate(29.72578125 302.6375)scale(0.1 -0.1)">
       <use xlink:href="#BitstreamVeraSans-Roman-30"/>
      </g>
     </g>
    </g>
    <g id="xtick_2">
     <g id="line2d_6">
      <g>
       <use style="stroke:#000000;stroke-width:0.5;" x="171.7453125" xlink:href="#mc7db9fdffb" y="291.0390625"/>
      </g>
     </g>
     <g id="line2d_7">
      <g>
       <use style="stroke:#000000;stroke-width:0.5;" x="171.7453125" xlink:href="#m5a7d422ac3" y="12.0390625"/>
      </g>
     </g>
     <g id="text_2">
      <!-- 10 -->
      <defs>
       <path d="
M12.4062 8.29688
L28.5156 8.29688
L28.5156 63.9219
L10.9844 60.4062
L10.9844 69.3906
L28.4219 72.9062
L38.2812 72.9062
L38.2812 8.29688
L54.3906 8.29688
L54.3906 0
L12.4062 0
z
" id="BitstreamVeraSans-Roman-31"/>
      </defs>
      <g transform="translate(166.2640625 302.6375)scale(0.1 -0.1)">
       <use xlink:href="#BitstreamVeraSans-Roman-31"/>
       <use x="63.623046875" xlink:href="#BitstreamVeraSans-Roman-30"/>
      </g>
     </g>
    </g>
    <g id="xtick_3">
     <g id="line2d_8">
      <g>
       <use style="stroke:#000000;stroke-width:0.5;" x="311.2453125" xlink:href="#mc7db9fdffb" y="291.0390625"/>
      </g>
     </g>
     <g id="line2d_9">
      <g>
       <use style="stroke:#000000;stroke-width:0.5;" x="311.2453125" xlink:href="#m5a7d422ac3" y="12.0390625"/>
      </g>
     </g>
     <g id="text_3">
      <!-- 20 -->
      <defs>
       <path d="
M19.1875 8.29688
L53.6094 8.29688
L53.6094 0
L7.32812 0
L7.32812 8.29688
Q12.9375 14.1094 22.625 23.8906
Q32.3281 33.6875 34.8125 36.5312
Q39.5469 41.8438 41.4219 45.5312
Q43.3125 49.2188 43.3125 52.7812
Q43.3125 58.5938 39.2344 62.25
Q35.1562 65.9219 28.6094 65.9219
Q23.9688 65.9219 18.8125 64.3125
Q13.6719 62.7031 7.8125 59.4219
L7.8125 69.3906
Q13.7656 71.7812 18.9375 73
Q24.125 74.2188 28.4219 74.2188
Q39.75 74.2188 46.4844 68.5469
Q53.2188 62.8906 53.2188 53.4219
Q53.2188 48.9219 51.5312 44.8906
Q49.8594 40.875 45.4062 35.4062
Q44.1875 33.9844 37.6406 27.2188
Q31.1094 20.4531 19.1875 8.29688" id="BitstreamVeraSans-Roman-32"/>
      </defs>
      <g transform="translate(305.58125 302.6375)scale(0.1 -0.1)">
       <use xlink:href="#BitstreamVeraSans-Roman-32"/>
       <use x="63.623046875" xlink:href="#BitstreamVeraSans-Roman-30"/>
      </g>
     </g>
    </g>
    <g id="xtick_4">
     <g id="line2d_10">
      <g>
       <use style="stroke:#000000;stroke-width:0.5;" x="450.7453125" xlink:href="#mc7db9fdffb" y="291.0390625"/>
      </g>
     </g>
     <g id="line2d_11">
      <g>
       <use style="stroke:#000000;stroke-width:0.5;" x="450.7453125" xlink:href="#m5a7d422ac3" y="12.0390625"/>
      </g>
     </g>
     <g id="text_4">
      <!-- 30 -->
      <defs>
       <path d="
M40.5781 39.3125
Q47.6562 37.7969 51.625 33
Q55.6094 28.2188 55.6094 21.1875
Q55.6094 10.4062 48.1875 4.48438
Q40.7656 -1.42188 27.0938 -1.42188
Q22.5156 -1.42188 17.6562 -0.515625
Q12.7969 0.390625 7.625 2.20312
L7.625 11.7188
Q11.7188 9.32812 16.5938 8.10938
Q21.4844 6.89062 26.8125 6.89062
Q36.0781 6.89062 40.9375 10.5469
Q45.7969 14.2031 45.7969 21.1875
Q45.7969 27.6406 41.2812 31.2656
Q36.7656 34.9062 28.7188 34.9062
L20.2188 34.9062
L20.2188 43.0156
L29.1094 43.0156
Q36.375 43.0156 40.2344 45.9219
Q44.0938 48.8281 44.0938 54.2969
Q44.0938 59.9062 40.1094 62.9062
Q36.1406 65.9219 28.7188 65.9219
Q24.6562 65.9219 20.0156 65.0312
Q15.375 64.1562 9.8125 62.3125
L9.8125 71.0938
Q15.4375 72.6562 20.3438 73.4375
Q25.25 74.2188 29.5938 74.2188
Q40.8281 74.2188 47.3594 69.1094
Q53.9062 64.0156 53.9062 55.3281
Q53.9062 49.2656 50.4375 45.0938
Q46.9688 40.9219 40.5781 39.3125" id="BitstreamVeraSans-Roman-33"/>
      </defs>
      <g transform="translate(445.09609375 302.6375)scale(0.1 -0.1)">
       <use xlink:href="#BitstreamVeraSans-Roman-33"/>
       <use x="63.623046875" xlink:href="#BitstreamVeraSans-Roman-30"/>
      </g>
     </g>
    </g>
    <g id="xtick_5">
     <g id="line2d_12">
      <g>
       <use style="stroke:#000000;stroke-width:0.5;" x="590.2453125" xlink:href="#mc7db9fdffb" y="291.0390625"/>
      </g>
     </g>
     <g id="line2d_13">
      <g>
       <use style="stroke:#000000;stroke-width:0.5;" x="590.2453125" xlink:href="#m5a7d422ac3" y="12.0390625"/>
      </g>
     </g>
     <g id="text_5">
      <!-- 40 -->
      <defs>
       <path d="
M37.7969 64.3125
L12.8906 25.3906
L37.7969 25.3906
z

M35.2031 72.9062
L47.6094 72.9062
L47.6094 25.3906
L58.0156 25.3906
L58.0156 17.1875
L47.6094 17.1875
L47.6094 0
L37.7969 0
L37.7969 17.1875
L4.89062 17.1875
L4.89062 26.7031
z
" id="BitstreamVeraSans-Roman-34"/>
      </defs>
      <g transform="translate(584.459375 302.6375)scale(0.1 -0.1)">
       <use xlink:href="#BitstreamVeraSans-Roman-34"/>
       <use x="63.623046875" xlink:href="#BitstreamVeraSans-Roman-30"/>
      </g>
     </g>
    </g>
    <g id="xtick_6">
     <g id="line2d_14">
      <g>
       <use style="stroke:#000000;stroke-width:0.5;" x="729.7453125" xlink:href="#mc7db9fdffb" y="291.0390625"/>
      </g>
     </g>
     <g id="line2d_15">
      <g>
       <use style="stroke:#000000;stroke-width:0.5;" x="729.7453125" xlink:href="#m5a7d422ac3" y="12.0390625"/>
      </g>
     </g>
     <g id="text_6">
      <!-- 50 -->
      <defs>
       <path d="
M10.7969 72.9062
L49.5156 72.9062
L49.5156 64.5938
L19.8281 64.5938
L19.8281 46.7344
Q21.9688 47.4688 24.1094 47.8281
Q26.2656 48.1875 28.4219 48.1875
Q40.625 48.1875 47.75 41.5
Q54.8906 34.8125 54.8906 23.3906
Q54.8906 11.625 47.5625 5.09375
Q40.2344 -1.42188 26.9062 -1.42188
Q22.3125 -1.42188 17.5469 -0.640625
Q12.7969 0.140625 7.71875 1.70312
L7.71875 11.625
Q12.1094 9.23438 16.7969 8.0625
Q21.4844 6.89062 26.7031 6.89062
Q35.1562 6.89062 40.0781 11.3281
Q45.0156 15.7656 45.0156 23.3906
Q45.0156 31 40.0781 35.4375
Q35.1562 39.8906 26.7031 39.8906
Q22.75 39.8906 18.8125 39.0156
Q14.8906 38.1406 10.7969 36.2812
z
" id="BitstreamVeraSans-Roman-35"/>
      </defs>
      <g transform="translate(724.10078125 302.6375)scale(0.1 -0.1)">
       <use xlink:href="#BitstreamVeraSans-Roman-35"/>
       <use x="63.623046875" xlink:href="#BitstreamVeraSans-Roman-30"/>
      </g>
     </g>
    </g>
    <g id="xtick_7">
     <g id="line2d_16">
      <g>
       <use style="stroke:#000000;stroke-width:0.5;" x="869.2453125" xlink:href="#mc7db9fdffb" y="291.0390625"/>
      </g>
     </g>
     <g id="line2d_17">
      <g>
       <use style="stroke:#000000;stroke-width:0.5;" x="869.2453125" xlink:href="#m5a7d422ac3" y="12.0390625"/>
      </g>
     </g>
     <g id="text_7">
      <!-- 60 -->
      <defs>
       <path d="
M33.0156 40.375
Q26.375 40.375 22.4844 35.8281
Q18.6094 31.2969 18.6094 23.3906
Q18.6094 15.5312 22.4844 10.9531
Q26.375 6.39062 33.0156 6.39062
Q39.6562 6.39062 43.5312 10.9531
Q47.4062 15.5312 47.4062 23.3906
Q47.4062 31.2969 43.5312 35.8281
Q39.6562 40.375 33.0156 40.375
M52.5938 71.2969
L52.5938 62.3125
Q48.875 64.0625 45.0938 64.9844
Q41.3125 65.9219 37.5938 65.9219
Q27.8281 65.9219 22.6719 59.3281
Q17.5312 52.7344 16.7969 39.4062
Q19.6719 43.6562 24.0156 45.9219
Q28.375 48.1875 33.5938 48.1875
Q44.5781 48.1875 50.9531 41.5156
Q57.3281 34.8594 57.3281 23.3906
Q57.3281 12.1562 50.6875 5.35938
Q44.0469 -1.42188 33.0156 -1.42188
Q20.3594 -1.42188 13.6719 8.26562
Q6.98438 17.9688 6.98438 36.375
Q6.98438 53.6562 15.1875 63.9375
Q23.3906 74.2188 37.2031 74.2188
Q40.9219 74.2188 44.7031 73.4844
Q48.4844 72.75 52.5938 71.2969" id="BitstreamVeraSans-Roman-36"/>
      </defs>
      <g transform="translate(863.5640625 302.6375)scale(0.1 -0.1)">
       <use xlink:href="#BitstreamVeraSans-Roman-36"/>
       <use x="63.623046875" xlink:href="#BitstreamVeraSans-Roman-30"/>
      </g>
     </g>
    </g>
    <g id="xtick_8">
     <g id="line2d_18">
      <g>
       <use style="stroke:#000000;stroke-width:0.5;" x="1008.7453125" xlink:href="#mc7db9fdffb" y="291.0390625"/>
      </g>
     </g>
     <g id="line2d_19">
      <g>
       <use style="stroke:#000000;stroke-width:0.5;" x="1008.7453125" xlink:href="#m5a7d422ac3" y="12.0390625"/>
      </g>
     </g>
     <g id="text_8">
      <!-- 70 -->
      <defs>
       <path d="
M8.20312 72.9062
L55.0781 72.9062
L55.0781 68.7031
L28.6094 0
L18.3125 0
L43.2188 64.5938
L8.20312 64.5938
z
" id="BitstreamVeraSans-Roman-37"/>
      </defs>
      <g transform="translate(1003.125 302.6375)scale(0.1 -0.1)">
       <use xlink:href="#BitstreamVeraSans-Roman-37"/>
       <use x="63.623046875" xlink:href="#BitstreamVeraSans-Roman-30"/>
      </g>
     </g>
    </g>
    <g id="xtick_9">
     <g id="line2d_20">
      <g>
       <use style="stroke:#000000;stroke-width:0.5;" x="1148.2453125" xlink:href="#mc7db9fdffb" y="291.0390625"/>
      </g>
     </g>
     <g id="line2d_21">
      <g>
       <use style="stroke:#000000;stroke-width:0.5;" x="1148.2453125" xlink:href="#m5a7d422ac3" y="12.0390625"/>
      </g>
     </g>
     <g id="text_9">
      <!-- 80 -->
      <defs>
       <path d="
M31.7812 34.625
Q24.75 34.625 20.7188 30.8594
Q16.7031 27.0938 16.7031 20.5156
Q16.7031 13.9219 20.7188 10.1562
Q24.75 6.39062 31.7812 6.39062
Q38.8125 6.39062 42.8594 10.1719
Q46.9219 13.9688 46.9219 20.5156
Q46.9219 27.0938 42.8906 30.8594
Q38.875 34.625 31.7812 34.625
M21.9219 38.8125
Q15.5781 40.375 12.0312 44.7188
Q8.5 49.0781 8.5 55.3281
Q8.5 64.0625 14.7188 69.1406
Q20.9531 74.2188 31.7812 74.2188
Q42.6719 74.2188 48.875 69.1406
Q55.0781 64.0625 55.0781 55.3281
Q55.0781 49.0781 51.5312 44.7188
Q48 40.375 41.7031 38.8125
Q48.8281 37.1562 52.7969 32.3125
Q56.7812 27.4844 56.7812 20.5156
Q56.7812 9.90625 50.3125 4.23438
Q43.8438 -1.42188 31.7812 -1.42188
Q19.7344 -1.42188 13.25 4.23438
Q6.78125 9.90625 6.78125 20.5156
Q6.78125 27.4844 10.7812 32.3125
Q14.7969 37.1562 21.9219 38.8125
M18.3125 54.3906
Q18.3125 48.7344 21.8438 45.5625
Q25.3906 42.3906 31.7812 42.3906
Q38.1406 42.3906 41.7188 45.5625
Q45.3125 48.7344 45.3125 54.3906
Q45.3125 60.0625 41.7188 63.2344
Q38.1406 66.4062 31.7812 66.4062
Q25.3906 66.4062 21.8438 63.2344
Q18.3125 60.0625 18.3125 54.3906" id="BitstreamVeraSans-Roman-38"/>
      </defs>
      <g transform="translate(1142.55390625 302.6375)scale(0.1 -0.1)">
       <use xlink:href="#BitstreamVeraSans-Roman-38"/>
       <use x="63.623046875" xlink:href="#BitstreamVeraSans-Roman-30"/>
      </g>
     </g>
    </g>
   </g>
   <g id="matplotlib.axis_2">
    <g id="ytick_1">
     <g id="line2d_22">
      <defs>
       <path d="
M0 0
L4 0" id="md7965d1ba0" style="stroke:#000000;stroke-width:0.5;"/>
      </defs>
      <g>
       <use style="stroke:#000000;stroke-width:0.5;" x="32.2453125" xlink:href="#md7965d1ba0" y="291.0390625"/>
      </g>
     </g>
     <g id="line2d_23">
      <defs>
       <path d="
M0 0
L-4 0" id="md9a1c1a7cd" style="stroke:#000000;stroke-width:0.5;"/>
      </defs>
      <g>
       <use style="stroke:#000000;stroke-width:0.5;" x="1148.2453125" xlink:href="#md9a1c1a7cd" y="291.0390625"/>
      </g>
     </g>
     <g id="text_10">
      <!-- 0.00 -->
      <defs>
       <path d="
M10.6875 12.4062
L21 12.4062
L21 0
L10.6875 0
z
" id="BitstreamVeraSans-Roman-2e"/>
      </defs>
      <g transform="translate(7.303125 293.7984375)scale(0.1 -0.1)">
       <use xlink:href="#BitstreamVeraSans-Roman-30"/>
       <use x="63.623046875" xlink:href="#BitstreamVeraSans-Roman-2e"/>
       <use x="95.41015625" xlink:href="#BitstreamVeraSans-Roman-30"/>
       <use x="159.033203125" xlink:href="#BitstreamVeraSans-Roman-30"/>
      </g>
     </g>
    </g>
    <g id="ytick_2">
     <g id="line2d_24">
      <g>
       <use style="stroke:#000000;stroke-width:0.5;" x="32.2453125" xlink:href="#md7965d1ba0" y="260.0390625"/>
      </g>
     </g>
     <g id="line2d_25">
      <g>
       <use style="stroke:#000000;stroke-width:0.5;" x="1148.2453125" xlink:href="#md9a1c1a7cd" y="260.0390625"/>
      </g>
     </g>
     <g id="text_11">
      <!-- 0.01 -->
      <g transform="translate(7.5625 262.7984375)scale(0.1 -0.1)">
       <use xlink:href="#BitstreamVeraSans-Roman-30"/>
       <use x="63.623046875" xlink:href="#BitstreamVeraSans-Roman-2e"/>
       <use x="95.41015625" xlink:href="#BitstreamVeraSans-Roman-30"/>
       <use x="159.033203125" xlink:href="#BitstreamVeraSans-Roman-31"/>
      </g>
     </g>
    </g>
    <g id="ytick_3">
     <g id="line2d_26">
      <g>
       <use style="stroke:#000000;stroke-width:0.5;" x="32.2453125" xlink:href="#md7965d1ba0" y="229.0390625"/>
      </g>
     </g>
     <g id="line2d_27">
      <g>
       <use style="stroke:#000000;stroke-width:0.5;" x="1148.2453125" xlink:href="#md9a1c1a7cd" y="229.0390625"/>
      </g>
     </g>
     <g id="text_12">
      <!-- 0.02 -->
      <g transform="translate(7.640625 231.7984375)scale(0.1 -0.1)">
       <use xlink:href="#BitstreamVeraSans-Roman-30"/>
       <use x="63.623046875" xlink:href="#BitstreamVeraSans-Roman-2e"/>
       <use x="95.41015625" xlink:href="#BitstreamVeraSans-Roman-30"/>
       <use x="159.033203125" xlink:href="#BitstreamVeraSans-Roman-32"/>
      </g>
     </g>
    </g>
    <g id="ytick_4">
     <g id="line2d_28">
      <g>
       <use style="stroke:#000000;stroke-width:0.5;" x="32.2453125" xlink:href="#md7965d1ba0" y="198.0390625"/>
      </g>
     </g>
     <g id="line2d_29">
      <g>
       <use style="stroke:#000000;stroke-width:0.5;" x="1148.2453125" xlink:href="#md9a1c1a7cd" y="198.0390625"/>
      </g>
     </g>
     <g id="text_13">
      <!-- 0.03 -->
      <g transform="translate(7.440625 200.7984375)scale(0.1 -0.1)">
       <use xlink:href="#BitstreamVeraSans-Roman-30"/>
       <use x="63.623046875" xlink:href="#BitstreamVeraSans-Roman-2e"/>
       <use x="95.41015625" xlink:href="#BitstreamVeraSans-Roman-30"/>
       <use x="159.033203125" xlink:href="#BitstreamVeraSans-Roman-33"/>
      </g>
     </g>
    </g>
    <g id="ytick_5">
     <g id="line2d_30">
      <g>
       <use style="stroke:#000000;stroke-width:0.5;" x="32.2453125" xlink:href="#md7965d1ba0" y="167.0390625"/>
      </g>
     </g>
     <g id="line2d_31">
      <g>
       <use style="stroke:#000000;stroke-width:0.5;" x="1148.2453125" xlink:href="#md9a1c1a7cd" y="167.0390625"/>
      </g>
     </g>
     <g id="text_14">
      <!-- 0.04 -->
      <g transform="translate(7.2 169.7984375)scale(0.1 -0.1)">
       <use xlink:href="#BitstreamVeraSans-Roman-30"/>
       <use x="63.623046875" xlink:href="#BitstreamVeraSans-Roman-2e"/>
       <use x="95.41015625" xlink:href="#BitstreamVeraSans-Roman-30"/>
       <use x="159.033203125" xlink:href="#BitstreamVeraSans-Roman-34"/>
      </g>
     </g>
    </g>
    <g id="ytick_6">
     <g id="line2d_32">
      <g>
       <use style="stroke:#000000;stroke-width:0.5;" x="32.2453125" xlink:href="#md7965d1ba0" y="136.0390625"/>
      </g>
     </g>
     <g id="line2d_33">
      <g>
       <use style="stroke:#000000;stroke-width:0.5;" x="1148.2453125" xlink:href="#md9a1c1a7cd" y="136.0390625"/>
      </g>
     </g>
     <g id="text_15">
      <!-- 0.05 -->
      <g transform="translate(7.5125 138.7984375)scale(0.1 -0.1)">
       <use xlink:href="#BitstreamVeraSans-Roman-30"/>
       <use x="63.623046875" xlink:href="#BitstreamVeraSans-Roman-2e"/>
       <use x="95.41015625" xlink:href="#BitstreamVeraSans-Roman-30"/>
       <use x="159.033203125" xlink:href="#BitstreamVeraSans-Roman-35"/>
      </g>
     </g>
    </g>
    <g id="ytick_7">
     <g id="line2d_34">
      <g>
       <use style="stroke:#000000;stroke-width:0.5;" x="32.2453125" xlink:href="#md7965d1ba0" y="105.0390625"/>
      </g>
     </g>
     <g id="line2d_35">
      <g>
       <use style="stroke:#000000;stroke-width:0.5;" x="1148.2453125" xlink:href="#md9a1c1a7cd" y="105.0390625"/>
      </g>
     </g>
     <g id="text_16">
      <!-- 0.06 -->
      <g transform="translate(7.26875 107.7984375)scale(0.1 -0.1)">
       <use xlink:href="#BitstreamVeraSans-Roman-30"/>
       <use x="63.623046875" xlink:href="#BitstreamVeraSans-Roman-2e"/>
       <use x="95.41015625" xlink:href="#BitstreamVeraSans-Roman-30"/>
       <use x="159.033203125" xlink:href="#BitstreamVeraSans-Roman-36"/>
      </g>
     </g>
    </g>
    <g id="ytick_8">
     <g id="line2d_36">
      <g>
       <use style="stroke:#000000;stroke-width:0.5;" x="32.2453125" xlink:href="#md7965d1ba0" y="74.0390625"/>
      </g>
     </g>
     <g id="line2d_37">
      <g>
       <use style="stroke:#000000;stroke-width:0.5;" x="1148.2453125" xlink:href="#md9a1c1a7cd" y="74.0390625"/>
      </g>
     </g>
     <g id="text_17">
      <!-- 0.07 -->
      <g transform="translate(7.49375 76.7984375)scale(0.1 -0.1)">
       <use xlink:href="#BitstreamVeraSans-Roman-30"/>
       <use x="63.623046875" xlink:href="#BitstreamVeraSans-Roman-2e"/>
       <use x="95.41015625" xlink:href="#BitstreamVeraSans-Roman-30"/>
       <use x="159.033203125" xlink:href="#BitstreamVeraSans-Roman-37"/>
      </g>
     </g>
    </g>
    <g id="ytick_9">
     <g id="line2d_38">
      <g>
       <use style="stroke:#000000;stroke-width:0.5;" x="32.2453125" xlink:href="#md7965d1ba0" y="43.0390625"/>
      </g>
     </g>
     <g id="line2d_39">
      <g>
       <use style="stroke:#000000;stroke-width:0.5;" x="1148.2453125" xlink:href="#md9a1c1a7cd" y="43.0390625"/>
      </g>
     </g>
     <g id="text_18">
      <!-- 0.08 -->
      <g transform="translate(7.3234375 45.7984375)scale(0.1 -0.1)">
       <use xlink:href="#BitstreamVeraSans-Roman-30"/>
       <use x="63.623046875" xlink:href="#BitstreamVeraSans-Roman-2e"/>
       <use x="95.41015625" xlink:href="#BitstreamVeraSans-Roman-30"/>
       <use x="159.033203125" xlink:href="#BitstreamVeraSans-Roman-38"/>
      </g>
     </g>
    </g>
    <g id="ytick_10">
     <g id="line2d_40">
      <g>
       <use style="stroke:#000000;stroke-width:0.5;" x="32.2453125" xlink:href="#md7965d1ba0" y="12.0390625"/>
      </g>
     </g>
     <g id="line2d_41">
      <g>
       <use style="stroke:#000000;stroke-width:0.5;" x="1148.2453125" xlink:href="#md9a1c1a7cd" y="12.0390625"/>
      </g>
     </g>
     <g id="text_19">
      <!-- 0.09 -->
      <defs>
       <path d="
M10.9844 1.51562
L10.9844 10.5
Q14.7031 8.73438 18.5 7.8125
Q22.3125 6.89062 25.9844 6.89062
Q35.75 6.89062 40.8906 13.4531
Q46.0469 20.0156 46.7812 33.4062
Q43.9531 29.2031 39.5938 26.9531
Q35.25 24.7031 29.9844 24.7031
Q19.0469 24.7031 12.6719 31.3125
Q6.29688 37.9375 6.29688 49.4219
Q6.29688 60.6406 12.9375 67.4219
Q19.5781 74.2188 30.6094 74.2188
Q43.2656 74.2188 49.9219 64.5156
Q56.5938 54.8281 56.5938 36.375
Q56.5938 19.1406 48.4062 8.85938
Q40.2344 -1.42188 26.4219 -1.42188
Q22.7031 -1.42188 18.8906 -0.6875
Q15.0938 0.046875 10.9844 1.51562
M30.6094 32.4219
Q37.25 32.4219 41.125 36.9531
Q45.0156 41.5 45.0156 49.4219
Q45.0156 57.2812 41.125 61.8438
Q37.25 66.4062 30.6094 66.4062
Q23.9688 66.4062 20.0938 61.8438
Q16.2188 57.2812 16.2188 49.4219
Q16.2188 41.5 20.0938 36.9531
Q23.9688 32.4219 30.6094 32.4219" id="BitstreamVeraSans-Roman-39"/>
      </defs>
      <g transform="translate(7.3421875 14.7984375)scale(0.1 -0.1)">
       <use xlink:href="#BitstreamVeraSans-Roman-30"/>
       <use x="63.623046875" xlink:href="#BitstreamVeraSans-Roman-2e"/>
       <use x="95.41015625" xlink:href="#BitstreamVeraSans-Roman-30"/>
       <use x="159.033203125" xlink:href="#BitstreamVeraSans-Roman-39"/>
      </g>
     </g>
    </g>
   </g>
   <g id="legend_1">
    <g id="patch_7">
     <path d="
M1086.42 74.4803
L1142.25 74.4803
L1142.25 18.0391
L1086.42 18.0391
z
" style="fill:#ffffff;stroke:#000000;stroke-linejoin:miter;"/>
    </g>
    <g id="line2d_42">
     <path d="
M1094.82 27.7572
L1111.62 27.7572" style="fill:none;stroke:#0000ff;stroke-linecap:square;"/>
    </g>
    <g id="line2d_43"/>
    <g id="text_20">
     <!-- z0 -->
     <defs>
      <path d="
M5.51562 54.6875
L48.1875 54.6875
L48.1875 46.4844
L14.4062 7.17188
L48.1875 7.17188
L48.1875 0
L4.29688 0
L4.29688 8.20312
L38.0938 47.5156
L5.51562 47.5156
z
" id="BitstreamVeraSans-Roman-7a"/>
     </defs>
     <g transform="translate(1124.8246875 31.9571875)scale(0.12 -0.12)">
      <use xlink:href="#BitstreamVeraSans-Roman-7a"/>
      <use x="52.490234375" xlink:href="#BitstreamVeraSans-Roman-30"/>
     </g>
    </g>
    <g id="line2d_44">
     <path d="
M1094.82 45.3709
L1111.62 45.3709" style="fill:none;stroke:#008000;stroke-linecap:square;"/>
    </g>
    <g id="line2d_45"/>
    <g id="text_21">
     <!-- z1 -->
     <g transform="translate(1124.8246875 49.5709375)scale(0.12 -0.12)">
      <use xlink:href="#BitstreamVeraSans-Roman-7a"/>
      <use x="52.490234375" xlink:href="#BitstreamVeraSans-Roman-31"/>
     </g>
    </g>
    <g id="line2d_46">
     <path d="
M1094.82 62.9847
L1111.62 62.9847" style="fill:none;stroke:#ff0000;stroke-linecap:square;"/>
    </g>
    <g id="line2d_47"/>
    <g id="text_22">
     <!-- z2 -->
     <g transform="translate(1124.8246875 67.1846875)scale(0.12 -0.12)">
      <use xlink:href="#BitstreamVeraSans-Roman-7a"/>
      <use x="52.490234375" xlink:href="#BitstreamVeraSans-Roman-32"/>
     </g>
    </g>
   </g>
  </g>
 </g>
 <defs>
  <clipPath id="p08d319014b">
   <rect height="279.0" width="1116.0" x="32.2453125" y="12.0390625"/>
  </clipPath>
 </defs>
</svg>
